<?xml version="1.0" encoding="utf-8"?>
<!-- Generator: Adobe Illustrator 16.0.0, SVG Export Plug-In . SVG Version: 6.00 Build 0)  -->
<!DOCTYPE svg PUBLIC "-//W3C//DTD SVG 1.1//EN" "http://www.w3.org/Graphics/SVG/1.1/DTD/svg11.dtd">
<svg version="1.1" id="Layer_1" xmlns="http://www.w3.org/2000/svg" xmlns:xlink="http://www.w3.org/1999/xlink" x="0px" y="0px"
	 width="552.208px" height="533.098px" viewBox="0 0 552.208 533.098" enable-background="new 0 0 552.208 533.098"
	 xml:space="preserve">
<g>
	<g>
		<g>
			<path fill-rule="evenodd" clip-rule="evenodd" fill="#FFFFFF" d="M210.452,268.932c-0.154-1.744-0.262-3.531-1.039-4.651
				c-1.092,4.594-0.633,11.028,2.07,13.442c0.532-5.672,1.41-10.993,3.619-14.992C211.581,262.831,212.212,267.078,210.452,268.932z
				"/>
		</g>
		<g>
			<path fill-rule="evenodd" clip-rule="evenodd" fill="#FFFFFF" d="M355.197,264.281c0.04,1.933-0.215,3.571-1.034,4.651
				c-0.798-2.644-0.987-5.904-4.134-6.201c2.618,3.756,2.449,10.296,4.134,14.992C355.795,274.779,357.532,267.928,355.197,264.281z
				"/>
		</g>
		<g>
			<path fill-rule="evenodd" clip-rule="evenodd" fill="#FFFFFF" d="M227.511,267.379c-3.534,3.707-3.68,16.385-0.521,20.682
				c1.563-5.85,2.333-12.49,4.653-17.58c-3.682,0.283-2.91,5.021-4.653,7.242C226.16,273.604,228.991,270.426,227.511,267.379z"/>
		</g>
		<g>
			<path fill-rule="evenodd" clip-rule="evenodd" fill="#FFFFFF" d="M333.487,271c2.924,4.484,2.476,12.342,5.166,17.061
				c1.993-5.17,3.094-17.623-1.55-20.682c-0.442,3.725,2.233,7.061,0.519,10.344C337.099,274.955,336.229,269.82,333.487,271z"/>
		</g>
		<g>
			<path fill-rule="evenodd" clip-rule="evenodd" fill="#FFFFFF" d="M171.674,314.42c2.28-1.334,1.876-5.357,3.622-7.236
				c-1.295-0.68-1.618,2.049-2.069,0.523c1.008-1.576,1.623-3.553,2.585-5.178C171.263,304.023,171.889,309.752,171.674,314.42z"/>
		</g>
		<g>
			<path fill-rule="evenodd" clip-rule="evenodd" fill="#FFFFFF" d="M393.452,314.42c0.06-4.361-0.111-11.625-4.135-11.369
				c0.959,1.133,2.73,4.141,2.07,5.17C388.846,305.076,391.917,313.594,393.452,314.42z"/>
		</g>
		<g>
			<path fill-rule="evenodd" clip-rule="evenodd" fill="#FFFFFF" d="M287.993,313.91c1.6,0.043,1.543-1.562,1.552-3.105
				c-0.98-0.221-1.301-1.113-2.588-1.033C288.08,311.52,287.177,312.074,287.993,313.91z"/>
		</g>
		<g>
			<path fill-rule="evenodd" clip-rule="evenodd" fill="#FFFFFF" d="M285.928,311.32c-1.127-0.861-4.659-0.822-5.174,0.52
				C282.634,311.555,285.209,313.545,285.928,311.32z"/>
		</g>
		<g>
			<path fill-rule="evenodd" clip-rule="evenodd" fill="#FFFFFF" d="M250.772,312.357c-2.341-0.275-3.379,0.758-3.104,3.102
				C249.138,314.861,250.735,314.393,250.772,312.357z"/>
		</g>
		<g>
			<path fill-rule="evenodd" clip-rule="evenodd" fill="#FFFFFF" d="M247.411,327.348c-2.34-0.271-3.377,0.762-3.1,3.107
				C245.778,329.852,247.376,329.385,247.411,327.348z"/>
		</g>
		<g>
			<path fill-rule="evenodd" clip-rule="evenodd" fill="#FFFFFF" d="M314.356,312.357c0.036,2.035,1.635,2.504,3.102,3.102
				C317.732,313.115,316.697,312.082,314.356,312.357z"/>
		</g>
		<g>
			<path fill-rule="evenodd" clip-rule="evenodd" fill="#FFFFFF" d="M316.168,324.764c0.032,2.035,1.63,2.508,3.104,3.104
				C319.545,325.523,318.508,324.492,316.168,324.764z"/>
		</g>
		<g>
			<path fill-rule="evenodd" clip-rule="evenodd" fill="#FFFFFF" d="M284.894,315.459c-0.403-0.111-0.607-0.436-0.519-1.039
				c-1.463-0.42-1.338,0.736-2.584,0.521C281.935,316.658,284.421,316.68,284.894,315.459z"/>
		</g>
		<g>
			<path fill-rule="evenodd" clip-rule="evenodd" fill="#FFFFFF" d="M175.296,319.078c-2.47,1.152-2.252,4.99-2.585,8.27
				C174.741,325.762,174.647,322.047,175.296,319.078z"/>
		</g>
		<g>
			<path fill-rule="evenodd" clip-rule="evenodd" fill="#FFFFFF" d="M392.42,327.348c-0.335-3.279-0.118-7.117-2.588-8.27
				C390.484,322.047,390.387,325.762,392.42,327.348z"/>
		</g>
		<g>
			<path fill-rule="evenodd" clip-rule="evenodd" fill="#FFFFFF" d="M228.021,323.215c-0.426-1.352,1.567-2.838,0-3.619
				C227.741,320.283,225.667,323.148,228.021,323.215z"/>
		</g>
		<g>
			<path fill-rule="evenodd" clip-rule="evenodd" fill="#FFFFFF" d="M336.59,319.596c0.149,1.572-0.084,3.527,1.546,3.619
				C338.254,321.379,337.79,320.111,336.59,319.596z"/>
		</g>
		<g>
			<path fill-rule="evenodd" clip-rule="evenodd" fill="#FFFFFF" d="M263.177,320.109c-0.156,1.225-1.792,0.963-1.549,2.584
				C263.3,322.855,265.187,320.58,263.177,320.109z"/>
		</g>
		<g>
			<path fill-rule="evenodd" clip-rule="evenodd" fill="#FFFFFF" d="M271.708,338.725c-0.158,1.217-1.795,0.961-1.549,2.586
				C271.834,341.473,273.712,339.193,271.708,338.725z"/>
		</g>
		<g>
			<path fill-rule="evenodd" clip-rule="evenodd" fill="#FFFFFF" d="M258.269,335.637c-0.154,1.221-1.79,0.965-1.551,2.586
				C258.392,338.383,260.276,336.107,258.269,335.637z"/>
		</g>
		<g>
			<path fill-rule="evenodd" clip-rule="evenodd" fill="#FFFFFF" d="M301.434,320.109c-1.015,1.08,0.441,2.596,2.068,2.584
				C303.468,321.182,302.317,320.777,301.434,320.109z"/>
		</g>
		<g>
			<path fill-rule="evenodd" clip-rule="evenodd" fill="#FFFFFF" d="M294.192,336.398c-1.014,1.078,0.449,2.596,2.069,2.584
				C296.228,337.469,295.082,337.064,294.192,336.398z"/>
		</g>
		<g>
			<path fill-rule="evenodd" clip-rule="evenodd" fill="#FFFFFF" d="M305.826,333.039c-1.016,1.084,0.448,2.592,2.072,2.584
				C307.86,334.105,306.714,333.701,305.826,333.039z"/>
		</g>
		<g>
			<path fill-rule="evenodd" clip-rule="evenodd" fill="#FFFFFF" d="M283.854,320.633c-1.577-0.375-1.883,0.527-3.101,0.514
				C280.453,323.139,284.161,321.9,283.854,320.633z"/>
		</g>
		<g>
			<path fill-rule="evenodd" clip-rule="evenodd" fill="#FFFFFF" d="M227.511,328.9c0.966-1.789,1.871-3.637,2.066-6.207
				C227.493,323.055,225.698,327.947,227.511,328.9z"/>
		</g>
		<g>
			<path fill-rule="evenodd" clip-rule="evenodd" fill="#FFFFFF" d="M338.136,328.9c1.008-1.789-0.905-4.414-1.546-6.207
				C334.397,323.566,336.858,328.109,338.136,328.9z"/>
		</g>
		<g>
			<path fill-rule="evenodd" clip-rule="evenodd" fill="#FFFFFF" d="M152.549,327.348c-0.685,4.039-1.335,11.377,2.065,12.928
				C153.036,336.857,155.839,329.061,152.549,327.348z"/>
		</g>
		<g>
			<path fill-rule="evenodd" clip-rule="evenodd" fill="#FFFFFF" d="M175.296,333.551c0.884-2.596,4.119-4.953,2.584-6.203
				c-3.053,2.979-5.088,6.973-4.653,13.441C175.23,339.352,174.409,336.139,175.296,333.551z"/>
		</g>
		<g>
			<path fill-rule="evenodd" clip-rule="evenodd" fill="#FFFFFF" d="M386.22,327.867c3.487,2.711,3.344,9.057,5.683,12.922
				C392.302,334.529,390.133,328.086,386.22,327.867z"/>
		</g>
		<g>
			<path fill-rule="evenodd" clip-rule="evenodd" fill="#FFFFFF" d="M411.549,327.348c-1.118,3.539,0,9.301-1.039,12.928
				C413.554,339.062,414.342,329.506,411.549,327.348z"/>
		</g>
		<g>
			<path fill-rule="evenodd" clip-rule="evenodd" fill="#FFFFFF" d="M281.271,329.416c0.739,0.789,2.696,0.504,2.584-1.031
				C282.577,328.309,281.349,328.289,281.271,329.416z"/>
		</g>
		<g>
			<path fill-rule="evenodd" clip-rule="evenodd" fill="#FFFFFF" d="M226.472,340.789c0.527-2.84,2.868-9.076,1.039-10.857
				C226.761,332.684,223.762,337.949,226.472,340.789z"/>
		</g>
		<g>
			<path fill-rule="evenodd" clip-rule="evenodd" fill="#FFFFFF" d="M336.59,329.932c1.049,3.432,0.389,8.574,2.587,10.857
				C340.372,337.072,339.24,331.492,336.59,329.932z"/>
		</g>
		<g>
			<path fill-rule="evenodd" clip-rule="evenodd" fill="#FFFFFF" d="M221.306,339.236c-0.113,0.406-0.432,0.604-1.034,0.521
				c0.58,1.627,0.046,1.168,0,3.104C221.678,343.02,222.384,339.855,221.306,339.236z"/>
		</g>
		<g>
			<path fill-rule="evenodd" clip-rule="evenodd" fill="#FFFFFF" d="M343.311,339.236c0.149,1.58-0.086,3.529,1.549,3.625
				c-0.048-1.936-0.58-1.477,0-3.104C344.145,339.777,343.726,339.514,343.311,339.236z"/>
		</g>
		<g>
			<path fill-rule="evenodd" clip-rule="evenodd" fill="#FFFFFF" d="M155.136,344.408c-0.815,6.416-1.363,18.629,2.581,20.162
				C154.788,359.922,157.711,349.414,155.136,344.408z"/>
		</g>
		<g>
			<path fill-rule="evenodd" clip-rule="evenodd" fill="#FFFFFF" d="M179.43,349.062c-1.015-0.154-1.026,0.697-1.55,1.035
				c-0.039-1.959,2.351-4.172,1.029-5.689c-3.219,4.217-0.648,6.084-1.547,10.859C179.318,354.459,179.155,351.541,179.43,349.062z"
				/>
		</g>
		<g>
			<path fill-rule="evenodd" clip-rule="evenodd" fill="#FFFFFF" d="M388.285,351.131c-0.002-3.1-0.88-5.324-2.587-6.723
				c-0.301,2.219,2.192,4.324,1.033,5.689c-0.058-0.629-0.152-1.227-1.033-1.035c0.281,2.479,0.112,5.396,2.068,6.205
				C388.052,353.766,386.062,349.863,388.285,351.131z"/>
		</g>
		<g>
			<path fill-rule="evenodd" clip-rule="evenodd" fill="#FFFFFF" d="M407.412,365.086c3.793-3.107,4.383-15.883,1.552-20.678
				C408.896,351.754,409.438,359.705,407.412,365.086z"/>
		</g>
		<g>
			<path fill-rule="evenodd" clip-rule="evenodd" fill="#FFFFFF" d="M221.824,348.541c0.688,0,1.372,0,2.069,0
				c-0.461-1.822,1.324-2.66-0.52-3.098C224.077,347.693,222.142,347.312,221.824,348.541z"/>
		</g>
		<g>
			<path fill-rule="evenodd" clip-rule="evenodd" fill="#FFFFFF" d="M341.24,345.443c-0.966,0.92,0.418,1.314,0,3.098
				c0.77-0.084,1.907,0.189,2.07-0.51C341.632,348.16,342.096,346.135,341.24,345.443z"/>
		</g>
		<g>
			<path fill-rule="evenodd" clip-rule="evenodd" fill="#FFFFFF" d="M221.306,362.506c1.665-0.252,1.748-3.193,0.519-3.621
				C222.075,360.52,220.892,360.713,221.306,362.506z"/>
		</g>
		<g>
			<path fill-rule="evenodd" clip-rule="evenodd" fill="#FFFFFF" d="M343.823,362.506c0.05-1.607-0.235-2.873-1.033-3.621
				C342.55,359.953,342.033,362.201,343.823,362.506z"/>
		</g>
		<g>
			<path fill-rule="evenodd" clip-rule="evenodd" fill="#FFFFFF" d="M225.44,368.188c-0.452-1.828,1.326-2.66-0.512-3.102
				C224.21,365.752,224.025,368.18,225.44,368.188z"/>
		</g>
		<g>
			<path fill-rule="evenodd" clip-rule="evenodd" fill="#FFFFFF" d="M339.686,365.086c-0.593,0.553-0.184,2.383,0.521,3.102
				C340.914,367.525,341.105,365.1,339.686,365.086z"/>
		</g>
		<g>
			<path fill-rule="evenodd" clip-rule="evenodd" fill="#FFFFFF" d="M215.103,373.877c0.438-0.434,1.415-4.039-0.52-3.621
				C214.895,371.33,213.944,373.652,215.103,373.877z"/>
		</g>
		<g>
			<path fill-rule="evenodd" clip-rule="evenodd" fill="#FFFFFF" d="M350.544,373.877c-0.376-1.174,0.932-4.033-1.033-3.621
				C349.599,371.717,349.068,373.805,350.544,373.877z"/>
		</g>
		<g>
			<path fill-rule="evenodd" clip-rule="evenodd" fill="#FFFFFF" d="M186.151,370.775c0.331,1.914-0.668,5.152,0.518,6.203
				C186.079,374.918,188.756,371.502,186.151,370.775z"/>
		</g>
		<g>
			<path fill-rule="evenodd" clip-rule="evenodd" fill="#FFFFFF" d="M377.945,370.775c-0.065,2.473,0.147,4.68,1.032,6.203
				C378.438,375.109,380.156,370.979,377.945,370.775z"/>
		</g>
		<g>
			<path fill-rule="evenodd" clip-rule="evenodd" fill="#FFFFFF" d="M217.687,375.424c-0.02,2.939-1.664,7.902,0.521,9.828
				C217.241,381.742,219.951,376.836,217.687,375.424z"/>
		</g>
		<g>
			<path fill-rule="evenodd" clip-rule="evenodd" fill="#FFFFFF" d="M346.41,375.424c0.724,2.9,0.021,7.219,1.034,9.828
				C348.14,382.611,348.653,376.74,346.41,375.424z"/>
		</g>
		<g>
			<path fill-rule="evenodd" clip-rule="evenodd" fill="#FFFFFF" d="M189.768,378.012c-0.451,1.129-1.915,3.902-0.515,5.17
				C189.204,381.553,191.174,379.281,189.768,378.012z"/>
		</g>
		<g>
			<path fill-rule="evenodd" clip-rule="evenodd" fill="#FFFFFF" d="M374.848,378.012c0.159,2.072,0.357,4.119,1.542,5.17
				C376.433,380.902,376.356,378.738,374.848,378.012z"/>
		</g>
		<g>
			<path fill-rule="evenodd" clip-rule="evenodd" fill="#FFFFFF" d="M220.271,385.766c0.224-1.762,0.438-3.912-0.521-5.688
				C218.674,381.537,219.411,384.635,220.271,385.766z"/>
		</g>
		<g>
			<path fill-rule="evenodd" clip-rule="evenodd" fill="#FFFFFF" d="M344.859,380.078c0.415,2.787-1.109,4.297,0.515,5.688
				C345.147,383.854,347.104,380.863,344.859,380.078z"/>
		</g>
		<g>
			<path fill-rule="evenodd" clip-rule="evenodd" fill="#FFFFFF" d="M223.374,382.145c-0.521,0-1.033,0-1.55,0
				c0.154,4.732-2.034,13.6,1.55,17.062C222.261,393.492,223.634,388.424,223.374,382.145z"/>
		</g>
		<g>
			<path fill-rule="evenodd" clip-rule="evenodd" fill="#FFFFFF" d="M343.311,382.145c-0.521,0-1.038,0-1.556,0
				c-0.26,6.279,1.112,11.348,0,17.062C345.337,395.744,343.153,386.877,343.311,382.145z"/>
		</g>
		<g>
			<path fill-rule="evenodd" clip-rule="evenodd" fill="#FFFFFF" d="M226.472,409.541c-0.604-7.461,0.732-15.32,0-22.225
				C224.348,392.855,221.876,404.908,226.472,409.541z"/>
		</g>
		<g>
			<path fill-rule="evenodd" clip-rule="evenodd" fill="#FFFFFF" d="M339.177,409.541c3.404-5.379,2.222-17.436-1.041-22.225
				C339.06,395.064,338.168,402.826,339.177,409.541z"/>
		</g>
		<g>
			<path fill-rule="evenodd" clip-rule="evenodd" fill="#FFFFFF" d="M228.542,394.559c-2.176,4.465-2.645,15.918,0.514,19.639
				C228.31,407.662,230.369,398.758,228.542,394.559z"/>
		</g>
		<g>
			<path fill-rule="evenodd" clip-rule="evenodd" fill="#FFFFFF" d="M336.068,394.559c-0.217,4.914-0.311,14.059,0.521,19.639
				C338.56,409.709,339.437,398.225,336.068,394.559z"/>
		</g>
		<g>
			<path fill-rule="evenodd" clip-rule="evenodd" fill="#FFFFFF" d="M250.255,402.309c-0.662,9.035,10.061,15.211,16.542,15.51
				c-3.18-2.164-8.933-4.504-9.817-7.232c3.656,0.273,4.424,3.006,7.748,4.648c0.208-0.891-0.766-1.324,0-1.551
				c1.482,2.15,7.181,1.02,5.171,5.168c4.022-0.916,3.535-7.707,2.069-9.822C268.362,403.83,251.112,390.639,250.255,402.309z"/>
		</g>
		<g>
			<path fill-rule="evenodd" clip-rule="evenodd" fill="#FFFFFF" d="M311.254,397.141c-5.428-1.012-27.05,14.953-16.023,21.711
				c0.426-1.463-0.732-1.338-0.518-2.586c2.316-0.611,4.125-1.734,6.201-2.582c-0.026,0.66-0.661,0.715-0.515,1.551
				c3.471-1.773,4.095-4.506,8.27-4.648c-2.532,3.494-7.403,4.648-10.337,7.746c7.021-1.762,17.691-6.912,16.539-16.537
				C314.586,399.373,313.152,397.492,311.254,397.141z"/>
		</g>
		<g>
			<path fill-rule="evenodd" clip-rule="evenodd" fill="#FFFFFF" d="M196.491,413.162c-1.769,0.023-2.649-2.486-4.653-3.621
				c-1.542,0.535-0.456,3.691-1.55,4.656c-1.11-4.922,1.075-13.139-2.064-16.025c-1.872,13.418,0.197,28.633,6.2,37.219
				c2.548-5.754-3.847-13.518-1.034-21.193c1.402,7.902,0.777,17.836,5.686,22.234C199.225,429.701,195.889,422.064,196.491,413.162
				z"/>
		</g>
		<g>
			<path fill-rule="evenodd" clip-rule="evenodd" fill="#FFFFFF" d="M377.424,398.693c-0.659-0.031-0.714-0.664-1.542-0.521
				c-1.184,4.68,0.037,11.76-1.556,16.025c0.104-2.168,0.184-4.318-1.553-4.656c-1.335,1.688-2.587,3.498-4.134,3.621
				c0.98,8.803-3.579,17.363-2.066,23.27c4.411-4.895,3.348-15.258,5.686-22.234c1.563,8.674-3.811,15.203-1.556,21.193
				C376.867,426.719,378.12,412.824,377.424,398.693z"/>
		</g>
		<g>
			<path fill-rule="evenodd" clip-rule="evenodd" fill="#FFFFFF" d="M412.581,288.061c3.35-7.076,6.006-17.314,4.134-27.917
				c-0.744-1.144-1.258,0.652-1.547-0.512c1.903-12.913,2.728-28.932,1.028-37.745c-2.181-11.372-1.176-26.176-8.784-35.156
				c0.956-5.822-5.112-8.976-8.271-12.403c0.812-0.046,1.79,0.071,1.547-1.032c-2.225-4.838-6.452-7.676-10.855-10.338
				c0.044-0.903-0.116-1.605-0.515-2.074c-12.953-6.862-22.498-17.125-39.807-19.642c6.929,0.483,11.953,2.865,17.58,4.654
				c-4.378-6.821-15.599-6.804-25.851-7.753c-16.321-15.861-56.576-16.99-80.646-9.309c10.822-3.822,24.058-5.236,37.227-6.719
				c-21.809-5.803-45.228,5.658-62.044,9.826c9.013-4.434,20.096-6.789,28.95-11.381c-11.333,0.561-19.016,4.764-27.395,8.273
				c-7.044-0.803-11.013,5.853-15.509,9.309c-9.248,1.266-19.849,1.178-23.786,7.753c5.438-1.46,11.521-5.021,17.582-4.138
				c-18.094,1.551-26.65,12.641-39.809,19.125c-0.529,0.682-0.507,1.908-1.035,2.586c-4.405,2.49-8.604,5.187-10.336,10.347
				c0.006,0.849,1.43,0.28,1.547,1.032c-3.811,2.818-9.299,6.42-8.271,12.404c-9.126,12.658-8.677,33.102-9.305,46.527
				c-0.395,8.514,0.303,17.579,1.549,26.364c-0.737-0.2-0.866-0.621-1.549,0c-1.993,10.884,1.065,20.912,4.137,28.431
				c-0.507,0.531-1.024,1.049-1.553,1.555c0.786,26.471,5.068,48.867,7.756,74.441c-2.601,7.469-0.022,17.672,2.584,23.264
				c1.836,0.807,0.312-1.758,1.55-1.551c1.7,9.332,4.006,18.053,8.271,24.814c1.02,0.154,1.028-0.699,1.554-1.031
				c1.95,7.82,7.128,9.643,10.853,16.025c0.6-1.682-1.578-3.186,0-4.137c1.256,2.371,2.145,5.09,5.17,5.684
				c-1.101-7.648-2.937-17.76-3.098-28.432c-0.039-2.539,1.388-6.98-2.072-7.756c-2.551,2.961,0.199,11.227-1.55,14.996
				c-2.114-5.641-0.868-14.645-2.584-20.682c-2.959-0.027-1.931,3.928-3.099,5.686c0.381-8.857-0.872-16.342,0-24.295
				c-2.996,2.178-1.59,8.748-3.104,12.406c-0.876-4.982,1.847-13.564-1.553-16.023c-2.261,1.701,0.057,7.977-2.067,9.82
				c-1.246-6.104,2.557-14.154-1.031-17.574c-1.193,3.453-0.438,8.867-1.555,12.402c-1.882-6.025,2.172-17.258-2.066-19.125
				c0.289-2.811,1.365-4.84,1.033-8.273c-4.731,2.848-3.441,11.725-5.684,17.062c1.018-12.158,0.604-19.594,4.137-29.467
				c-0.777-1.434-2.121,0.895-2.586-0.518c-0.009-1.221,0.892-1.521,0.52-3.104c-0.692-1.264-1.928,0.568-2.07-0.518
				c1.102-5.449,2.988-10.107,4.137-15.506c-2.826-0.246-2.729,2.441-4.137,3.617c0.212-4.443,2.891-8.582,2.07-12.404
				c-2.916,1.561-2.207,6.752-4.137,9.301c-0.191-7.941,1.725-13.781,1.547-21.711c-0.889-0.207-1.326,0.77-1.547,0
				c1.973-6.336-0.529-10.83,1.032-17.58c-1.63-0.592-1.258,0.812-2.064,1.037c-0.44-7.16,1.896-11.55,3.014-17.155
				c-0.301,1.907,0.97,2.248,1.117,3.711c-1.783,1.087-3.241,5.512-0.517,6.725c0.389-1.851,2.292-2.19,3.102-3.622
				c0.5,2.363-1.816,3.612-0.518,5.174c2.027,0.817,1.071-1.341,2.07-1.552c1.812,2.643-0.679,4.01,0.514,6.719
				c2.262,0.367,1.104-2.689,2.588-3.102c-0.066,0.928,0.508,1.211,1.55,1.033c-0.55,1.447-2.451,3.375-1.038,5.17
				c2.336,0.094,0.966-3.521,3.107-3.621c-0.025,0.711,0.24,1.139,0.517,1.553c-3.589,7.715-0.394,21.17,3.62,26.367
				c1.111-0.438-0.197-3.299,1.031-3.617c0.181,3.781,1.949,5.979,3.103,8.783c1.696-6.398,1.753-14.449,5.687-18.607
				c-0.152,1.016,0.695,1.023,1.031,1.547c-3.885,5.994-5.346,15.883-3.619,23.266c-0.973,0.119-1.137-0.582-2.066-0.518
				c-3.19,8.135-0.326,15.57,0,22.75c0.088,1.934-0.809,3.703-0.518,5.688c1.433,9.689,10.592,17.471,10.858,27.395
				c0.319,0.719,1.986,0.082,2.066,1.039c2.804,9.951,8.956,18.479,12.413,27.912c1.247,3.428,0.798,7.404,4.135,9.824
				c0.275-0.754-0.609-2.67,0.51-2.588c0.719,3.08,0.721,6.863,4.658,6.723c-1.996-3.523,0.306-11.334-2.07-14.473
				c-1.441-0.234,0.406,2.814-1.034,2.584c0-3.447,0-6.893,0-10.342c-3.688,2.326-1.673,10.787-2.585,14.475
				c-2.189-6.594-0.474-17.1-2.584-23.775c-1.555,2.064-0.592,6.639-2.066,8.787c-1.514-4.693,0.92-13.336-1.55-17.064
				c-2.564,2.266-0.695,8.959-2.073,12.408c-1.895-5.338-1.99-12.484-2.582-19.129c-3.235-0.301-0.337,5.529-2.072,6.721
				c-2.535-4.182-1.062-12.363-3.099-17.057c-1.989,1.453-0.169,6.717-1.546,8.787c-1.61-5.881,1.852-13.629-1.554-17.576
				c-1.095,2.178-0.031,6.518-1.552,8.273c-1.555-9.584-1.32-17.168,0-25.852c-1.62-0.854-1.458,2.576-2.07,1.037
				c0.307-2.109,0.241-4.592,1.551-5.691c0.859,1.73,0.522,4.652,1.555,6.205c1.015,0.152,1.023-0.695,1.55-1.037
				c1.724,5.178,1.897,11.898,3.618,17.064c0.892-0.314-0.04-2.455,1.035-2.584c-0.508,4.645,1.026,7.24,2.584,9.822
				c0.044,3.064,1.184,7.762,3.103,7.236c-0.862-1.23-0.862-6.006,0-7.236c0.452,3.68,0.976,7.297,3.616,8.789
				c-2.75-6.742-0.777-16.57-2.582-23.264c-1.443,0.623-0.422,3.713-1.555,4.652c-0.697-5.576,3.311-11.785,1.032-15.512
				c-1.583,0.824-0.771,4.053-2.575,4.654c0.051-2.521,3.336-6.568,0-7.754c0.508-1.559,1.829-2.307,1.543-4.656
				c-4.518-0.037-3.457,5.506-5.684,7.756c-0.248-7.994,7.479-11.785,4.652-19.125c1.648-2.66,4.251-4.371,5.168-7.76
				c-0.318-0.717-1.989-0.074-2.063-1.033c2.9-0.75-1.487-3.25,1.028-3.615c2.396,1.377,3.885,2.16,5.693,3.102
				c-0.215,0.996-2.008,0.41-1.557,2.068c0.756,0.281,2.674-0.607,2.588,0.518c-0.778,0.775-2.178,0.922-2.588,2.062
				c2.982,0.939-0.23,0.85,0,3.104c1.934,0.691,2.96-2.152,3.62-1.037c0.417,7.811,12.576,8.572,14.475,1.555
				c-3.354,1.875-9.724,5.463-11.888,0c4.465,4.951,9.445-1.209,12.919-1.555c-1.464-6.457-8.401-7.445-15.506-8.266
				c-3.073-8.266,0.231-17.65,6.204-20.162c-0.805,1.836,1.754,0.312,1.552,1.549c-0.011,3.111,1.028,5.174,2.069,7.24
				c0.74-5.635,2.167-10.58,3.1-16.023c-2.359,0.045-1.793,3.031-3.1,4.133c-0.619-2.908,1.115-7.618-0.517-8.269
				c-0.255,0.609-0.556,1.172-1.038,1.55c0.215-1.036,1.283-3.837,0-4.649c-2.945,2.225-1.781,11.306-5.166,11.369
				c0.132-2.277,1.778-3.041,1.544-5.687c-3.576,1.42-3.714,6.277-4.128,10.857c-2.846,2.672-2.629,8.395-4.654,11.891
				c-0.661-1.324-2.531,0.475-2.588-0.518c0.043-2.711,0.66-1.631,2.07-1.037c0.259-2.498,0.952-4.559,1.549-6.717
				c-1.654-1.049-1.615,2.047-2.066,0.518c-0.174-1.426,1.486-3.635,0-4.656c-0.893,2.551-1.244,5.648-1.029,9.309
				c-1.461-1.396-2.127,0.914-4.14,0.521c4.085-3.213,1.644-8.607,2.581-11.893c-2.061-0.514-1.555,1.541-3.613,1.029
				c-1.872-6.654,4.785-7.508,5.172-13.442c-3.719-1.034,2.029-7.576-2.072-9.306c0.525-1.72,2.857-1.615,2.584-4.131
				c-1.104-1.753-2.813,1.118-3.099,0c1.495-6.264,10.632-7.633,13.956-10.341c-2.853,3.174-8.213,3.846-10.857,7.238
				c3.217,0.618,5.538-2.369,7.242-1.555c-0.427,2.164-3.472,1.707-4.141,3.617c1.352-0.141,2.587-0.17,2.072,1.555
				c2.508-1.449,5.299-2.627,8.269-3.617c-0.801,1.836,1.755,0.309,1.553,1.551c-2.979,1.497-7.185,1.777-9.821,3.619
				c4.641,1.227,7.743-1.326,11.891-1.032c-0.157,0.609-2.09,1.946-0.52,2.581c0.506-0.7,1.374-1.034,2.066-1.549
				c0,0.689,0,1.377,0,2.063c1.518,0.598,1.921-2.476,2.581-1.028c-1.237,3.751-0.757,6.535-1.031,11.89
				c1.595,0.992,4.182,1.976,3.618,3.617c0.93-0.324,1.848-3.266,2.588-2.067c-1.055,0.497-1.117,1.983-1.035,3.618
				c1.621,0.859,2.109-1.923,2.585-0.52c-0.807,1.189-2.657,3.174-1.55,4.654c2.408,0.492,2.232-4.283,3.616-3.102
				c-0.9,2.203-1.884,4.314-1.55,7.754c2.643-2.004,2.527-6.773,4.652-9.307c0.402,4.018-1.67,5.568-1.033,9.826
				c2.113-0.645,3.328-2.188,5.168-3.104c-0.759,3.549-4.129,4.486-5.685,7.236c1.015,1.602,2.581-1.777,3.103-0.516
				c0.929,3.172-2.635,1.846-2.068,4.658c1.444,1.465,5.967-0.348,6.722,0.51c-1.78,0.463-3.225,1.258-4.653,2.07
				c0.799,1.479,2.415-1.078,3.098,0.514c0.144,1.867-2.047,1.4-2.062,3.105c1.479,0.721,2.626-1.414,3.098,0
				c-0.771,0.779-2.944,0.156-2.584,2.07c0.921,0.59,0.537,2.145,0.518,4.133c0.312,0.889,2.452-0.043,2.587,1.033
				c-1.483-0.098-2.824-0.062-2.587,1.547c1.398,0.67,2.87,1.268,5.169,1.037c3.657,7.463,17.453,1.496,22.228,1.029
				c-2.553,1.246-4.884,2.701-8.271,3.109c1.672,4.723,7.66-1.701,10.858,0c-1.658,0.746-3.368,1.461-3.619,3.615
				c4.752-0.291,8.128-6.312,16.544-4.65c2.713,1.492,5.847,5.078,8.788,4.65c-0.108-2.477-2.588-2.584-3.62-4.133
				c4.038-0.232,9.008,4.807,10.858,0.518c-3.313-0.654-6.384-1.551-8.271-3.621c5.84,2.258,18.579,6.068,22.741-0.518
				c2.12,0.223,3.312-0.479,4.655-1.037c0.613-2.166-2.182-0.918-2.584-2.062c1.197,0.164,1.983-0.082,2.584-0.518
				c-0.017-1.988-0.406-3.543,0.517-4.133c0.498-2.227-2.535-0.91-2.583-2.588c0.902-0.143,2.579,1.455,3.098,0
				c-0.562-1.164-2.483-0.961-2.065-3.102c1.574-0.201,2.632,1.359,3.104-0.518c-2.125-0.117-3.391-1.096-4.654-2.062
				c1.562,0.566,5.236,0.973,6.721,0c0.38-2.801-3.137-1.691-2.066-5.174c1.011,0.432,2.584,2.564,3.098,0.516
				c-1.742-1.883-5.9-4.082-5.168-6.721c1.144,1.441,2.867,2.299,4.654,3.104c0.955-4.066-2.215-6.73-0.518-9.826
				c1.216,3.268,1.782,7.176,4.135,9.307c0.457-3.732-0.967-5.582-1.55-8.271c1.8,0.615,1.134,3.695,3.618,3.619
				c1.221-1.727-1.144-3.443-1.552-5.166c0.989,0.217,0.935,1.473,2.59,1.031c0.295-2.023-0.448-3-1.038-4.136
				c1.27,0.144,2.06,3.412,3.103,2.07c-1.673-1.707,2.461-1.992,3.099-3.102c-0.263-5.604,0.162-8.12-1.032-12.41
				c1.218,0.157,0.965,1.795,2.582,1.549c0.092-0.774-0.177-1.903,0.521-2.063c0.144,1.061,1.384,1.031,2.066,1.549
				c0.861-1.623-1.921-2.112-0.518-2.581c3.5-0.46,7.854,2.94,11.377,0.512c-3.392-1.093-7.402-1.562-9.821-3.616
				c1.62,0.594,1.252-0.812,2.063-1.033c2.55,1.242,5.421,2.165,7.758,3.617c-0.521-1.725,0.71-1.695,2.065-1.555
				c-0.697-2.056-4.167-1.338-4.13-4.131c2.404,0.688,3.92,2.275,7.232,2.068c-2.585-3.619-8.591-3.816-10.855-7.756
				c4.006,4.443,12.822,4.066,13.957,11.373c-0.804-0.623-2.01-1.652-3.102-0.515c-0.363,2.771,2.558,2.265,2.586,4.649
				c-4.112,1.592,1.632,7.818-2.069,9.304c0.601,5.169,7.734,7.253,4.651,12.925c-1.625,0.248-1.169-1.586-3.101-1.029
				c0.308,3.205-0.36,9.363,2.069,11.893c-1.502-0.602-2.979-0.863-3.62-1.043c0.027-3.473,0.197-7.084-1.551-8.787
				c-0.403,2.303,0.69,3.105,0.513,5.172c-0.806-0.221-0.434-1.625-2.063-1.033c0.6,2.158,1.296,4.219,1.551,6.717
				c1.523-0.982,2.181-1.268,2.066,1.555c-0.964-1.014-1.89-0.158-3.101,0c0.073-4.35-2.886-8.26-4.132-12.41
				c-1.073-3.561,0.042-8.906-4.138-10.337c-0.255,2.837,1.67,3.498,1.549,6.203c-3.973-1.879-1.72-9.994-5.688-11.884
				c-0.627,1.873,1.036,4.078,0,4.649c0.03-0.89-0.399-1.327-1.033-1.55c-0.715,1.115,0.936,6.472-0.518,8.269
				c-0.305-1.932-0.62-3.857-2.587-4.133c1.258,5.291,1.835,11.262,3.625,16.023c0.118-2.979,1.981-4.223,1.549-7.754
				c1.627,0.59,1.257-0.812,2.07-1.035c5.21,2.727,9.383,12.969,5.17,20.162c-6.836,0.922-13.583,1.926-14.996,8.266
				c3.305,1.023,9.229,5.52,12.926,2.074c-2.828,4.721-8.471,1.289-11.894-0.52c1.944,7.137,14.537,6.271,14.475-2.066
				c1.191,0.531,1.673,1.777,3.621,1.549c-0.392-2.574-2.288-1.844,0-3.613c-1.027-0.523-2.206-0.895-2.59-2.07
				c0.871,0,1.73,0,2.59,0c0.551-1.93-1.94-0.822-1.549-2.588c2.567,0.287,3.166-2.102,6.203-2.582
				c0.833,1.119-1.629,2.816,0.516,4.135c-0.897-0.041-1.607,0.117-2.069,0.514c0.862,3.627,3.948,5.016,5.171,8.277
				c-3.067,6.715,5.932,11.602,4.137,18.607c-1.272-3.035-1.003-7.609-5.172-7.756c-0.374,2.623,1.423,3.059,1.553,5.17
				c-4.125,0.486,1.237,5.859-0.518,7.24c-1.128-1.285-0.429-4.398-2.587-4.654c-1.283,4.402,2.696,10.742,1.038,15.512
				c-0.098-1.971,0.301-4.438-1.553-4.652c-0.54,7.676,0.261,16.332-2.069,23.264c3.024-1.283,2.647-5.975,4.136-8.789
				c-0.236,2.52,0.542,6.051-0.514,7.75c3.594-4.332,4.603-11.246,6.203-17.572c-0.077,1.283-0.097,2.506,1.035,2.584
				c0.877-6.012,1.275-12.508,3.613-17.064c0.066,0.633,0.157,1.229,1.042,1.037c1.313-1.436,0.193-5.311,2.066-6.205
				c0.351,2.062,1.119,3.699,1.031,6.205c-0.991-0.213-0.409-2.006-2.063-1.551c1.058,8.48,2.133,17.225-0.521,25.852
				c-0.756-2.525,0.33-6.877-1.555-8.273c-2.566,4.68,0.915,12.527-1.547,17.576c-0.289-3.152,0.925-7.818-1.556-8.787
				c-1.068,5.65,0,13.445-3.098,17.057c-0.492-2.262,1.275-6.783-1.549-6.721c-0.819,6.596-0.248,14.58-3.103,19.129
				c-0.347-4.48,1.043-10.695-2.068-12.408c-1.568,4.639,0.729,13.141-1.554,17.064c-0.614-3.004,0.106-7.344-2.066-8.787
				c-1.164,7.619,0.271,17.842-2.583,23.775c0.375-4.604,1.164-11.994-2.072-14.475c-0.339,3.277,0.684,7.922-0.511,10.342
				c-0.232-0.979,0.699-3.117-1.032-2.584c-1.189,4.154,0.076,10.762-1.557,14.473c4.35,0.381,3.442-4.486,5.172-6.723
				c0.283,0.754-0.604,2.674,0.515,2.588c4.729-13.369,11.479-24.715,16.026-38.254c0.902,0.037,1.607-0.117,2.067-0.521
				c0.409-10.098,9.495-17.818,10.858-27.916c0.254-1.918-0.629-3.691-0.518-5.686c0.39-6.885,3.134-14.295,0-22.23
				c-0.966-0.492-1.729,1.551-2.07,0c2.051-7.307-0.26-16.996-3.616-23.264c1.018,0.158,1.023-0.695,1.549-1.031
				c3.405,4.695,3.155,13.047,5.688,18.607c0.604-3.359,2.212-5.705,3.104-8.783c0.084,1.459-0.447,3.545,1.032,3.617
				c3.234-6.102,6.808-18.861,3.103-26.885c0.681-0.006,0.473-0.906,1.032-1.035c1.235,0.834,0.566,3.576,2.587,3.621
				c1.918-1.754-1.579-4.357-0.521-5.17c1.018,0.158,1.026-0.697,1.553-1.033c0.506,1.219,0.165,3.279,2.069,3.102
				c1.272-2.609-1.675-4.759,1.032-6.719c-0.309,1.343,0.205,1.86,1.553,1.552c1.609-1.329-1.832-3.725,0-5.174
				c0.435,1.81,2.196,2.281,3.102,3.622c2.174-2.311,0.24-5.424-1.032-7.238c1.201-0.518,0.626-2.82,1.55-3.62
				c-0.202,6.404,4.071,11.087,2.067,17.578c0.068-0.928-0.515-1.211-1.55-1.037c1.492,6.92-0.852,11.447,1.035,18.098
				c-0.662-0.025-0.719-0.664-1.553-0.518c-0.515,7.752,2.495,14.73,1.035,21.711c-0.935-3.375-1.038-7.572-3.622-9.301
				c-1.192,3.662,2.728,8.812,1.552,12.404c-0.489-1.922-1.197-3.625-3.622-3.617c1.12,5.598,3.257,10.186,4.14,16.023
				c-0.767-0.6-1.298-0.6-2.069,0c-0.415,1.793,0.771,1.99,0.517,3.621c-1.286-0.061-1.6-0.971-2.587,0
				c3.196,9.664,3.874,18.223,3.622,29.467c-1.172-6.236-0.794-14.029-5.169-17.062c-0.392,3.672,0.941,5.609,1.032,8.791
				c-4.714,1.23,0.587,13.895-2.584,18.607c0.076-4.557-0.218-8.74-1.031-12.402c-3.918,3.213,0.908,12.514-1.554,17.574
				c-1.285-2.682,0.917-8.842-2.069-9.82c-2.653,3.203,0.27,11.984-1.547,16.023c-0.368-4.633,0.022-10.02-2.587-12.406
				c0.521,7.744,0.292,16.486-0.516,24.295c0.006-2.762-0.117-5.4-2.587-5.686c-1.975,5.955,0.049,15.904-3.102,20.682
				c-0.782-4.732,1.713-12.742-1.547-14.996c-3.276,4.688-0.93,12.041-1.556,18.09c-0.696,6.785-3.43,12.736-3.104,18.098
				c3.336-0.457,3.637-3.945,5.692-5.684c0.592,1.678-1.581,3.178,0,4.137c3.255-6.844,8.348-8.68,10.853-16.025
				c0.062,0.631,0.154,1.223,1.04,1.031c4.64-6.557,6.03-16.369,8.783-24.814c0.052,0.814-0.069,1.793,1.037,1.551
				c2.739-5.74,5.098-16.074,2.585-23.783c2.789-25.301,6.952-47.623,7.753-73.922C413.74,289.314,412.491,289.352,412.581,288.061z
				 M164.44,350.615c1.059-0.689,0.278,4.871,0.514,6.715C163.897,358.021,164.679,352.467,164.44,350.615z M182.534,332.516
				c1.104,3.207,2.51,6.107,2.58,10.346C183.584,340.086,182.301,337.059,182.534,332.516z M184.604,317.01
				c-1.16-1.865,0.691-5.145,0.51-7.756c0.683,0.188,0.813,0.912,1.555,1.035C186.72,313.27,184.696,314.176,184.604,317.01z
				 M201.146,343.893c0.914-1.381,0.375,3.025,0.512,4.139C200.742,349.408,201.283,345,201.146,343.893z M216.652,298.916
				c1.245,0.213,1.123-0.947,2.587-0.516C220.003,300.035,216.263,300.885,216.652,298.916z M203.73,287.543
				c0.675,0.18,0.812,0.908,1.55,1.031c-0.479,0.902-1.617,1.145-3.103,1.033C202.329,288.555,203.576,288.602,203.73,287.543z
				 M170.125,180.53c2.095-4.284,11.046-5.712,17.575-7.235c-4.977,3.119-12.416,3.782-16.543,7.756
				c-1.133,1.076,0.453,1.673-0.516,2.582c-6.518,3.822-11.304,9.373-15.506,15.51C156.55,191.429,161.321,182.58,170.125,180.53z
				 M158.237,310.289c0.209,1.244-0.945,1.125-0.521,2.586c-2.615-4.418-2.788-11.764-2.067-18.092
				C158.275,297.963,154.765,309.635,158.237,310.289z M176.331,282.373c-0.927,2.258,0.258-4.689,2.066-4.65
				C177.522,279.09,177.197,281.006,176.331,282.373z M180.979,290.129c-1.164-3.076,1.36-6.902,2.069-9.822
				C184.933,284.094,181.002,286.521,180.979,290.129z M183.563,258.077c0.289-5.4,1.896-9.474,2.588-14.472
				c-3.07,2.619-3.457,7.916-4.138,12.92c-10.226-2.15-27.86-13.912-15.509-25.846c-3.673,1.15-3.911,5.738-6.201,8.269
				c-7.613-3.659-3.67-16.084-0.52-21.713c-3.26,1.91-3.682,6.652-5.17,10.337c-1.418-2.618-3.248-11.23-2.065-17.058
				c0.605-2.974,4.502-8.171,2.587-2.581c5.395-2.362,8.514-9.75,12.919-11.377c-2.082,8.257-11.153,9.523-11.37,19.646
				c2.939-4.82,5.689-9.826,9.82-13.445c1.133,14.897,9.395,22.662,16.544,31.536c-1.455,4.755-3.667,8.745-3.101,15.513
				c1.963-4.417,2.592-10.16,4.656-14.478c0.76,1.989-2.093,4.792-1.556,8.276c1.819-1.633,2.493-4.396,3.103-7.244
				c1.863-0.137,2.495,0.957,4.137,1.037c-0.959,4.949-4.191,9.629-2.588,15.51c1.775-4.086,2.127-9.594,4.138-13.445
				c1.218,0.518,2.538,0.909,4.136,1.035c-0.923,2.01-2.146,3.717-2.584,6.201c-1.398,0.217,1.215-3.742,1.034-5.682
				c-4.739,3.82-5.937,13.552-5.171,21.193C186.319,261.865,185.065,259.852,183.563,258.077z M192.872,263.762
				c-1.698-4.021-1.074-11.24-0.514-16.023C192.769,252.053,192.138,258.47,192.872,263.762z M189.768,308.221
				c-0.737-2.988,1.161-7.797,2.591-10.338C192.675,298.906,191.558,305.225,189.768,308.221z M190.288,296.328
				c-0.515-2.416,2.009-6.246,3.102-8.785C193.661,289.721,190.874,293.291,190.288,296.328z M198.038,281.855
				c-0.942-2.111-2.344-0.68-3.614-2.066c-0.065-0.93,0.63-1.092,0.512-2.066c0.446,1.152,2.351,3.807,3.103,1.547
				C199.554,279.713,197.735,280.938,198.038,281.855z M180.465,163.99c9.185-7.065,27.368-11.617,46.007-9.307
				C211.403,155.241,191.68,157.293,180.465,163.99z M286.957,127.285c1.203-0.034,2.361,0.022,3.619,0
				C287.575,128.507,280.208,127.457,286.957,127.285z M345.895,298.4c1.314,0.057,2.659,0.094,2.585,1.553
				C346.997,300.051,345.654,300.014,345.895,298.4z M359.849,289.094c0.183-0.682,0.912-0.816,1.037-1.551
				c1.056,0.154,1.016,1.398,2.068,1.551C362.431,290.549,360.758,288.953,359.849,289.094z M363.988,348.031
				c-0.923,1.377-0.38-3.031-0.521-4.139C364.386,342.512,363.846,346.918,363.988,348.031z M382.082,332.516
				c1.732,3.641-1.18,7.088-1.552,10.346C378.946,339.369,382.283,336.346,382.082,332.516z M379.494,309.254
				c1.238,1.869,1.056,5.146,1.556,7.756C380.179,314.814,377.185,311.461,379.494,309.254z M400.688,357.33
				c-1.056,0.691-0.279-4.863-0.515-6.715C401.233,349.926,400.454,355.486,400.688,357.33z M394.487,178.464
				c0.856,1.027-0.046,0.656,0,2.065c9.581,1.796,12.745,10.003,16.022,18.095c-4.536-3.734-9.221-11.791-16.022-14.992
				c-0.861-1.026,0.049-0.655,0-2.07c-4.211-4.06-11.057-5.48-17.063-7.747C383.229,173.183,389.001,177.06,394.487,178.464z
				 M338.136,154.683c1.383,0,2.76,0,4.137,0c17.593-2.385,31.742,3.033,42.909,8.785
				C373.571,158.537,356.247,154.843,338.136,154.683z M367.605,281.855c-0.767-0.439-1.111-1.301-1.032-2.586
				c0.943,1.389,3.344,0.965,3.099-1.547c0.692,0.338,0.966,1.104,1.031,2.066C369.804,281.529,367.763,279.145,367.605,281.855z
				 M372.259,247.739c1.899,3.966,0.87,11.195,0.515,16.023C371.765,259.286,373.571,252.847,372.259,247.739z M375.36,296.328
				c-1.946-2.189-2.284-5.984-4.137-8.268C373.194,288.17,374.215,293.678,375.36,296.328z M372.773,297.883
				c0.458-0.014,2.896,6.678,3.108,10.338C373.509,305.369,372.883,301.883,372.773,297.883z M381.562,280.307
				c1.916,2.391,2.675,5.938,3.1,9.822C383.463,287.021,381.294,284.887,381.562,280.307z M388.801,282.891
				c-0.606-1.635-0.944-3.539-2.069-4.658C387.948,276.699,389.916,283.764,388.801,282.891z M407.93,312.875
				c-0.792-0.08-1.47-3.992-0.518-2.586c2.369-3.318,0.146-11.23,1.552-15.506C411.017,300.25,409.344,307.814,407.93,312.875z
				 M405.862,217.235c1.638,4.935,6.827,17.427-0.518,21.713c-2.96-1.869-2.941-6.712-6.204-8.269
				c0.066,3.346,4.307,6.576,4.134,10.338c-0.313,7.23-13.131,13.652-20.16,15.508c-0.432-5.08-1.455-9.578-3.62-12.92
				c-0.546,5.76,6.042,17.673-3.612,18.605c0.939-7.658-0.763-16.696-4.658-21.193c-1.311,1.519,1.075,3.729,1.035,5.682
				c-1.02,0.143-1.47-4.721-3.102-5.682c0.503-1.221,2.981-0.465,3.616-1.555c2.532,3.328,3.194,8.525,4.141,13.445
				c2.775-4.975-1.327-10.758-2.066-15.51c1.637-0.08,2.27-1.174,4.13-1.037c0.338,2.941,1.642,4.911,2.584,7.244
				c1.424-2.646-1.094-5.789-1.549-8.276c2.658,3.717,3.423,9.335,4.648,14.478c1.693-5.486-1.081-10.979-2.579-14.992
				c6.241-9.785,16.035-16.015,16.024-32.057c4.468,3.288,7.562,7.954,9.823,13.445c1.16-9.091-8.571-11.764-10.858-19.128
				c1.519-0.55,4.234,2.601,6.203,4.651c2.142,2.227,3.705,5.365,6.206,6.207c0.859-0.161,0.711-1.668,0.155-2.311
				c-0.214-0.117-0.435-0.215-0.672-0.277c0.254-0.061,0.486,0.06,0.672,0.277c4.463,2.418,3.26,16.332,1.392,21.949
				C408.804,224.631,408.658,219.614,405.862,217.235z"/>
		</g>
		<g>
			<path fill-rule="evenodd" clip-rule="evenodd" fill="#FFFFFF" d="M229.056,297.883c2.726-3.312,5.215-9.602,6.207-12.924
				c-0.712,0.705-2.179,3.293-2.584,2.584c0.072-3.031,1.996-4.209,2.067-7.236c-2.854-0.264-2.033,3.135-3.616,4.131
				c-0.467-4.08,1.471-5.762,1.549-9.301C226.338,278.668,231.989,291.602,229.056,297.883z"/>
		</g>
		<g>
			<path fill-rule="evenodd" clip-rule="evenodd" fill="#FFFFFF" d="M329.352,285.48c2.906,3.463,3.501,9.246,6.717,12.402
				c-2.928-6.281,2.723-19.215-3.619-22.746c-0.191,3.299,2.762,6.182,1.038,9.301c-0.623-1.789-0.635-4.189-3.104-4.131
				c0.071,3.203,2.225,4.324,2.066,7.754C331.541,287.389,330.203,284.492,329.352,285.48z"/>
		</g>
		<g>
			<path fill-rule="evenodd" clip-rule="evenodd" fill="#FFFFFF" d="M274.55,310.289c3.184-0.928,4.991-5.176,8.794-2.582
				c-3.349,0.273-5.355,1.881-7.76,3.098c0.015,1.543-0.049,3.148,1.553,3.105c0.918-1.742-0.378-3.014,1.549-4.139
				c2.536-0.723,8.328,0.176,8.271-1.551c1.344,0.561,1.926,1.869,3.619,2.068C289.541,303.439,275.836,303.717,274.55,310.289z"/>
		</g>
		<g>
			<path fill-rule="evenodd" clip-rule="evenodd" fill="#FFFFFF" d="M232.161,341.824c0.286,0.004,0.59-0.42,0-0.514
				c-1.675,0.732-1.85,2.973-3.105,4.133c-0.042-2.08,2.949-4.98,0.521-6.207c-1.012,2.965-4.995,7.857-2.587,10.861
				c1.159-0.912,1.031-3.104,2.065-4.137c-1.86,5.889-2.807,12.926,0,17.578C229.901,356.488,233.868,348.09,232.161,341.824z"/>
		</g>
		<g>
			<path fill-rule="evenodd" clip-rule="evenodd" fill="#FFFFFF" d="M332.449,341.824c-0.233,5.314,1.854,15.641,4.141,21.715
				c2.066-4.82,0.887-11.16,0.185-16.158c-0.091-0.449-0.147-0.926-0.185-1.42c0.054,0.455,0.117,0.936,0.185,1.42
				c0.261,1.271,0.782,2.281,1.879,2.717c0.892-3.74-1.51-8.414-3.616-10.861c-1.729,1.844,1.896,4.789,0.52,6.207
				C335.36,343.723,333.677,340.801,332.449,341.824z"/>
		</g>
		<g>
			<path fill-rule="evenodd" clip-rule="evenodd" fill="#FFFFFF" d="M366.057,417.818c-1.61,3.213-0.848,8.811-2.068,12.404
				c0.158-2.916-0.143-5.377-1.034-7.236c-1.627-0.252-1.364,1.783-2.587,0.521c-0.429,3.289-0.884,8.445-2.067,12.404
				c-0.114-3.848,0.163-8.084-2.068-9.82c-1.169,2.799-0.053,7.871-1.549,10.34c0.092-2.508-0.685-4.145-1.041-6.209
				c-2.025-0.473-1.294,1.799-3.612,1.037c-0.338,2.594,0.675,6.537-0.519,8.271c-0.063-1.32-0.097-2.66-1.549-2.588
				c-1.478,0.078-0.946,2.162-1.032,3.621c-0.809-0.625-2.016-1.65-3.106-0.516c0.073,2.656-0.078,5.092-1.033,6.721
				c-0.557-2.027,1.195-6.369-1.035-6.721c-1.315,0.057-1.022,1.73-1.035,3.098c-1.072-1.119-1.667,0.064-2.584,0.521
				c-0.331,1.908-0.525,3.947-1.546,5.17c0.317-4.281-0.793-7.137-1.553-10.338c-1.322,1.086-1.304,3.518-2.588,4.646
				c0.475-5.584,4.583-9.91,6.728-13.438c0.973-1.609,1.669-3.434,2.578-5.17c2.002-3.811,3.374-8.73,5.175-10.855
				c-1.126,1.324,1.901,0.119,0-1.031c3.199,1.17,2.149-8.18,1.55-10.857c-5.105,2.305-2.111,12.713-5.689,16.537
				c-0.4-3.217,0.641-7.881-2.07-8.791c-0.457,10.232-1.711,22.412-7.747,25.338c2.145-2.479,4.249-9.088,6.204-13.445
				c-2.41,0.736,0.724-7.291-3.108-6.717c-1.071,2.719,0.084,7.664-1.549,9.822c0.518-2.238-0.58-2.869-1.032-4.137
				c2.447-3.688,3.725-16.23,0-19.643c-1.742,3.744,1.304,9.17-0.515,12.924c-0.151-2.264,0.352-5.18-1.556-5.688
				c-1.703,0.539,0.955,5.438-1.551,5.166c-0.827-1.701,0.49-5.701,0.517-8.266c-1.737,0.357-1.693-1.066-2.584-1.555
				c4.119-10.404-1.404-22.512-6.204-28.949c0.523-4.186-5.051-9.365-8.268-9.822c6.332,9.057,15.727,19.721,13.436,36.189
				c-0.387-11.844-3.688-21.777-8.781-27.4c-2.545-2.799-7.927-4.691-8.276-9.309c1.295,0.43,1.632,1.812,2.584,2.588
				c-2.338-8.861-10.08-12.318-17.059-16.541c1.467,0.086,2.153,0.945,3.616,1.033c-0.546-4.283-6.343-3.301-9.302-5.17
				c1.721,0,3.444,0,5.168,0c-4.551-3.58-16.206-2.156-21.711-0.518c0.28,3.934-8.456,2.307-9.308,6.719
				c2.407,0.148,4.317-2.893,6.204-1.547c-7.164,3.084-15.181,7.928-16.453,15.441c0.36-1.102,1.708-2.283,1.979-1.486
				c-1.202,4.721-5.75,6.008-8.272,8.789c-5.236,5.781-8.241,16.934-9.306,27.4c-0.939-17.342,7.352-26.883,13.957-36.189
				c-3.281,0.598-9.084,5.641-8.27,10.338c-5.355,6.031-10.082,18.58-6.201,28.953c-1.598-0.389-0.629,1.781-2.587,1.035
				c-0.284,2.5,2.079,7.359,0,8.266c-1.706-0.529,0.955-5.436-1.55-5.166c-1.4,1.014-0.423,4.404-1.553,5.688
				c-0.594-4.77,1.415-8.973,0-12.924c-3.904,3.719-2.188,16.07,0,20.158c-1.62,0.102-0.432,3.018-1.555,3.621
				c-0.557-3.057-0.238-6.992-1.033-9.822c-3.732-0.102-0.923,7.273-3.098,7.238c2.201,4.191,4.324,10.562,6.203,13.436
				c-0.949-0.598-1.752-1.35-2.584-2.062c-3.994-5.711-4.254-15.432-5.684-23.787c-2.158,1.473-0.714,6.529-2.069,8.791
				c-2.585-4.656-0.36-14.113-5.172-16.537c-2.339,5.852,0.812,10.256,1.556,11.367c0.057,0.092-1.033,2.701,0.512,0.521
				c1.923,12.035,12.227,18.443,13.441,29.463c-0.498-1.916-0.886-3.941-2.584-4.646c-0.104,3.861-1.023,6.904-1.556,10.338
				c0-2.064-1.031-3.105-1.031-5.17c-2.854-0.252-1.701-2.357-4.138-3.619c-1.521,1.059,0.494,5.656-1.028,6.721
				c0.116-2.531-0.916-3.914-0.519-6.721c-1.105-1.754-2.814,1.121-3.098,0c0.018-1.57,0.297-3.402-1.556-3.105
				c-1.212,0.172-0.503,2.26-1.55,2.588c0-2.754,0-5.512,0-8.271c-2.315,0.762-1.59-1.51-3.619-1.037
				c-0.727,1.863-0.532,4.637-1.553,6.209c-0.746-3.223,0.464-8.396-1.549-10.34c-1.667,2.293-1.018,6.908-2.064,9.82
				c-0.461-4.857-0.846-9.627-2.072-12.404c-0.455,1.527-0.771-1.203-2.067-0.521c-1.321,1.607-0.494,5.367-1.552,7.236
				c-0.328-4.496,0.188-9.83-2.067-12.404c-0.034,7.27,0.1,14.373,2.587,19.125c4.68,1.619,6.188,10.633,9.816,14.998
				c0.305-1.385-1.525-3.232,0-4.141c0.881,3.951,2.337,7.316,5.69,8.791c0.081-0.613-0.086-1.473,0.512-1.555
				c0.202,1.701,1.515,2.281,2.075,3.623c5.525-1.416,6.836,4.992,10.85,6.717c0.16-2.58-3.277-4.279-2.067-6.203
				c2.526,4.717,5.743,8.732,10.344,11.373c0-1.725-1.682-1.764-1.553-3.617c7.319,6.641,15.896,12.027,18.612,23.264
				c0.195-4.857-3.029-9.025-2.584-12.406c4.424,8.324,5.556,19.945,8.787,29.463c0.623-9.24-2.682-17.303-3.617-23.26
				c4.984,5.871,5.547,16.164,8.271,24.291c0.085-0.764-0.189-1.898,0.515-2.061c0.309,1.066-0.636,3.398,0.517,3.615
				c0.458-2.469,0.153-5.707,1.034-7.754c1.511,4.699,2.558,9.855,2.583,16.027c4.14-3.377,1.054-14.875,1.551-19.131
				c3.575,6.08,2.714,16.596,3.623,25.338c0.824-0.383-0.116-2.533,1.547-2.066c1.272,4.062,3.056,7.629,5.172,10.848
				c1.489-0.223-0.457-3.902,1.031-4.133c2.33-0.256,0.583,3.557,2.588,3.621c0.689-3.621-0.286-8.898,1.551-11.367
				c0.401,1.139,0.299,2.797,1.552,3.098c-0.107-9.764-0.435-19.738,3.616-25.338c-0.863,5.174-2.639,15.631,1.037,19.131
				c0.26-6.111,0.649-12.096,3.103-16.027c-0.052,2.98-0.074,5.938,1.031,7.754c0.309-1.07-0.637-3.396,0.515-3.615
				c0.089,0.773-0.183,1.902,0.518,2.061c1.869-8.986,2.824-18.887,8.273-24.291c-2.096,6.518-5.077,14.91-3.621,23.26
				c2.461-10.293,3.784-21.721,8.789-29.463c-0.694,3.957-3.735,8.318-2.581,12.406c1.676-11.59,11.748-17.541,18.092-22.742
				c-0.206,1.344-1.544,1.557-1.554,3.096c4.909-2.502,7.557-7.266,10.859-11.373c0.071,2.5-3.374,4.186-2.065,6.203
				c3.343-2.24,5.074-8.018,10.338-6.717c0.885-1.182,1.524-2.611,2.585-3.623c0.074,0.609-0.092,1.473,0.518,1.555
				c3.073-1.746,4.017-5.631,5.686-8.791c0.723,1.811-1.454,3.316,0,4.141c2.567-5.486,5.438-12.994,9.306-15.51
				C366.414,432.303,367.188,423.777,366.057,417.818z M236.296,443.146c-0.816-1.074-1.066-2.715-1.033-4.646
				C236.587,439.07,236.274,441.273,236.296,443.146z M238.365,457.107c-2.247-0.855-2.099-4.104-2.588-6.719
				c0.995,0.205,0.044,2.369,2.069,1.553C237.444,454.236,238.534,455.037,238.365,457.107z M238.882,417.301
				c-0.892-1.176-1.103-3.029-1.035-5.172C238.74,413.311,238.951,415.16,238.882,417.301z M312.289,371.291
				c-7.587-2.238-13.485-10.635-23.259-12.406C298.591,357.277,305.37,366.861,312.289,371.291z M294.198,390.418
				c-2.213-0.814,5.169-0.357,1.547-1.035c0.442-0.762,1.303-1.105,2.587-1.033c0,0.52,0,1.033,0,1.551
				c2.648-0.973,7.236,0,9.826-1.031c-2.17,1.965-7.342,0.932-7.759,4.654c-0.687-0.863-2.928-0.174-3.622-1.035
				c0.081-0.961,1.752-0.316,2.069-1.037C297.729,390.68,295.939,390.57,294.198,390.418z M290.062,395.068
				c-1.061-0.617,1.102-2.803-2.068-2.064c0.6-2.053,3.24,0.238,5.688-0.516C294.471,393.312,289.35,392.611,290.062,395.068z
				 M268.348,391.973c0.241,1.787-2.803,0.293-3.098,1.551c-1.45-2.689-4.757-3.521-8.271-4.141
				c1.237-0.697,5.246,0.359,8.783,0.518c2.646,0.121,11.26-0.016,4.136,0.518c-1.213,0.166-1.938,0.816-3.616,0.521
				C266.404,391.848,267.165,392.109,268.348,391.973z M267.313,381.633c0.243,1.162-2.806-1.191-3.098,0.512
				c0.122,1.602,4.253-0.803,3.612,1.553c-2.345-0.672-5.405-0.672-7.753,0c2.937-2.58,5.864-5.162,11.893-4.65
				c1.867-0.375,1.867,0.891,0,0.516c-1.724,0.52-3.55,0.93-5.171,1.551C266.7,381.553,266.999,381.602,267.313,381.633z
				 M266.797,385.766c-2.069,0-4.138,0-6.202,0c0-0.346,0-0.686,0-1.031C262.468,385.27,266.591,383.557,266.797,385.766z
				 M268.348,386.803c-1.523,3.008-5.88,0.217-9.819,1.031C259.973,385.658,265.25,387.316,268.348,386.803z M275.07,392.488
				c-0.427,1.459,0.729,1.338,0.514,2.58c-1.314-0.746-1.307-2.826-4.134-2.064C269.961,392.139,274.09,392.594,275.07,392.488z
				 M273.002,372.84c5.722-1.527,13.852-1.244,19.644,0C287.277,372.9,276.401,373.162,273.002,372.84z M284.894,374.908
				c6.995,0.752,1.406,0.262-4.654,0.516C280.008,374.475,283.881,374.801,284.894,374.908z M292.128,379.562
				c4.876-2.773,9.402,1.816,12.925,3.619c-0.892,1.354-2.678-0.729-4.653,0c0.273-0.42,0.536-0.84,0.515-1.549
				C296.7,382.85,297.105,378.809,292.128,379.562z M306.603,387.316c-2.612,0.445-7.702,1.711-9.302,0
				C299.273,386.395,304.604,386.547,306.603,387.316z M300.399,385.252c0.255-0.715,4.659-1.258,4.134,0.514
				C303.046,385.707,301.154,386.047,300.399,385.252z M285.928,361.467c-1.058,1.188-4.298,0.191-6.206,0.521
				C280.775,360.801,284.018,361.799,285.928,361.467z M286.957,369.74c-1.562,1.193-5.329,0.182-7.753,0.516
				C280.688,368.611,284.719,369.242,286.957,369.74z M276.104,358.369c-9.146,3.09-15.242,9.227-23.264,13.439
				C259.403,366.379,265.847,358.42,276.104,358.369z M265.25,431.26c11.178-0.16,23.513-0.059,34.637,0
				C297.79,442.266,267.343,442.266,265.25,431.26z M315.395,411.098c-1.288,2.67-3.643,4.41-5.17,7.754
				c-2.438,5.326-3.82,10.771-11.893,8.787c-9.382-2.309-21.54-2.426-31.019,0c-7.562,1.936-9.525-2.488-12.407-8.787
				c-2.778-6.082-10.814-15.637-4.651-24.814c1.838-0.746,3.33-1.84,4.651-3.098c6.706,0.701,10.48,4.338,15.512,6.715
				c0.421,0.102,0.513,0.52,1.032,0.518c-0.64-1.078-1.501-1.939-2.583-2.582c2.892,0.9,7.707,4.352,10.854,6.719
				c8.413,0.488,11.181-4.67,16.544-7.24c-0.537,1.365-2.051,1.748-2.584,3.104c5.448-2.475,9.428-6.422,16.543-7.232
				c1.322,1.258,2.814,2.352,4.646,3.098C316.936,397.102,318.14,405.4,315.395,411.098z M326.763,412.129
				c1.562,1.268-0.387,3.367,0,5.172C325.199,416.033,327.162,413.936,326.763,412.129z M326.763,457.107
				c-0.168-2.07,0.922-2.871,0.521-5.166c1.343,0.303,1.858-0.211,1.549-1.553C329.686,452.119,328.708,456.447,326.763,457.107z
				 M329.352,443.146c-1.284-0.816-0.213-3.611,0-4.646C330.935,439.617,328.856,441.41,329.352,443.146z"/>
		</g>
		<g>
			<path fill-rule="evenodd" clip-rule="evenodd" fill="#FFFFFF" d="M253.445,366.057c-0.069,0.199-0.103,0.398-0.089,0.582
				C253.38,366.439,253.413,366.252,253.445,366.057z"/>
		</g>
		<g>
			<path fill-rule="evenodd" clip-rule="evenodd" fill="#FFFFFF" d="M175.296,348.031c0.663,0.023,0.715,0.66,1.547,0.51
				c-0.248-4.723,2.162-6.797,2.587-10.85c-1.981,0.256-1.749,2.727-3.099,3.619c0.283-4.027,3.09-5.527,4.134-8.795
				C174.618,334.656,174.602,341.893,175.296,348.031z"/>
		</g>
		<g>
			<path fill-rule="evenodd" clip-rule="evenodd" fill="#FFFFFF" d="M388.285,341.311c-0.443-1.629-0.96-3.182-2.587-3.619
				c0.427,4.053,2.833,6.127,2.587,10.85c3.758-3.986,2.028-14.301-3.624-16.025C385.381,335.604,389.472,338.043,388.285,341.311z"
				/>
		</g>
		<g>
			<path fill-rule="evenodd" clip-rule="evenodd" fill="#FFFFFF" d="M237.333,356.299c-2.92,0.871-2.576,5.008-4.654,6.723
				c-0.301-4.762,3.777-10.141,2.067-12.924c-5.907,10.857-5.304,30.506,1.031,40.32c2.604-15.494,11.145-25.047,19.647-34.633
				c-8.746,3.141-12.316,11.463-17.06,18.607c-0.071-3.453,3.145-6.01,2.069-8.785c-3.65,1.346-3.555,6.438-5.688,9.301
				c0.528-6.016,2.818-10.277,4.136-15.508C236.838,358.936,237.833,357.402,237.333,356.299z"/>
		</g>
		<g>
			<path fill-rule="evenodd" clip-rule="evenodd" fill="#FFFFFF" d="M329.352,390.418c6.184-9.703,7.39-30.303,0.515-40.32
				c-0.676,3.336,3.387,8.949,2.068,12.924c-1.197-2.42-1.523-5.717-4.136-6.723c-0.016,1.543-0.317,2.275-1.55,3.619
				c1.26,4.6,4.394,10.074,3.617,14.99c-1.195-3.627-1.854-7.793-5.17-9.301c-1.435,2.615,3.059,6.133,1.553,8.785
				c-3.745-7.459-8.728-16.426-16.544-18.094C318.692,365.229,326.615,375.234,329.352,390.418z"/>
		</g>
	</g>
	<g>
		<path fill="#FFFFFF" d="M239.675,528.312c-0.211-1.123-0.336-3.041-0.945-4.789c-2.039-5.855-6.637-39.49-8-41.312
			c-1.684-2.252-5.57-4.143-7.999-5.193c-4.358-1.895-23.803-10.182-25.158-11.191c-2.599-1.936-23.777-34.094-29.935-42.906
			c-5.855-8.373-30.016-44.672-34.864-50.789c-5.003-6.309-40.833-60.141-46.214-68.496c-1.455-2.262-2.679-3.662-2-6.059
			c0.369-1.287,0.877-2.547,1.492-3.725c1.854-3.574,3.781-7.115,5.701-10.656c0.932-1.721-3.172-5.035-6.396-6.885
			c-4.509-3.848-31.056-28.426-33.514-26.788c-2.462,1.918,2.976,45.278,3.104,46.303c0.089,0.686,0.688,1.49,1.292,1.877
			c0.633,0.396,13.164,4.371,18.021,6.189c0.412,0.252,4.131,0.992,5.464,2.824c3.496,4.803,20.69,29.635,24.655,34.732
			c0.328,0.42,12.842,21.299,20.467,30.682c7.315,9.002,47.195,66.645,53.862,78.637c2.892,5.195,13.668,16.904,14.511,18.283
			c0.418,0.68,0.508,1.447,0.268,2.301c-0.289,11.951,0.279,22.438,0.322,31.275c0.012,2.049,2.02,3.795,3.769,4.645
			c7.815,3.816,35.155,22.242,39.132,24.439c1.189,0.662,2.833-0.447,2.844-1.848C239.558,529.6,239.595,529.33,239.675,528.312z
			 M69.066,295.924c-2.046-0.436-3.927-0.689-5.703-1.27c-1.59-0.525-2.724-1.686-2.841-3.518
			c-0.119-1.875-3.809-29.101-3.763-31.771c0.015-0.692,26.444,22.833,28.082,24.226c0.875,0.742,1.121,1.828,0.626,2.912
			c-1.01,2.188-2.049,4.365-3.124,6.525c-0.229,0.463-0.679,0.814-0.998,1.23c-0.405,0.52-1.667,0.445-2.149-0.135
			c-2.594-3.115-4.625-6.549-6.072-10.348c-0.365-0.955-1.141-1.768-1.807-2.584c-0.555-0.678-1.91-0.623-2.959,0.014
			c-0.672,0.4-0.984,1.395-0.599,2.111c2.039,3.771,9.927,15.678,6.501,14.369C73.01,297.211,70.149,296.221,69.066,295.924z
			 M234.14,522.68c-1.721-0.85-19.383-25.648-22.348-30.076c-2.213-3.314-10.149-13.164-12.059-16.682
			c-0.123-0.23,18.03,5.92,22.904,8.07c0.243,0.107,0.489,0.252,0.658,0.449c0.697,0.789,1.545,1.518,1.987,2.432
			c0.569,1.188,0.935,2.52,1.166,3.822C227.281,495.43,234.74,522.971,234.14,522.68z"/>
	</g>
	<g>
		<path fill="#FFFFFF" d="M327.321,529.863c0.014,1.4,1.652,2.51,2.842,1.848c3.979-2.197,31.312-20.623,39.134-24.439
			c1.749-0.85,3.758-2.596,3.766-4.645c0.041-8.838,0.608-19.324,0.326-31.275c-0.243-0.854-0.151-1.621,0.266-2.301
			c0.845-1.379,11.624-13.088,14.509-18.283c6.67-11.992,46.548-69.635,53.863-78.637c7.629-9.383,20.142-30.262,20.472-30.682
			c3.96-5.098,21.157-29.93,24.647-34.732c1.34-1.832,5.051-2.572,5.469-2.824c4.856-1.818,17.39-5.793,18.022-6.189
			c0.603-0.387,1.199-1.191,1.285-1.877c0.133-1.025,5.575-44.385,3.114-46.303c-2.465-1.639-29.008,22.94-33.521,26.788
			c-3.219,1.85-7.33,5.164-6.395,6.885c1.92,3.541,3.847,7.082,5.705,10.656c0.611,1.178,1.119,2.438,1.484,3.725
			c0.683,2.396-0.547,3.797-2.004,6.059c-5.371,8.355-41.199,62.188-46.205,68.496c-4.854,6.117-29.009,42.416-34.864,50.789
			c-6.153,8.812-27.341,40.971-29.936,42.906c-1.356,1.01-20.803,9.297-25.157,11.191c-2.432,1.051-6.314,2.941-7.998,5.193
			c-1.364,1.822-5.96,35.457-8.003,41.312c-0.608,1.748-0.731,3.666-0.941,4.789C327.281,529.33,327.317,529.6,327.321,529.863z
			 M492.614,297.688c-3.425,1.309,4.458-10.598,6.498-14.369c0.389-0.717,0.078-1.711-0.598-2.111
			c-1.049-0.637-2.401-0.691-2.962-0.014c-0.662,0.816-1.44,1.629-1.801,2.584c-1.447,3.799-3.482,7.232-6.076,10.348
			c-0.479,0.58-1.742,0.654-2.146,0.135c-0.323-0.416-0.766-0.768-0.998-1.23c-1.074-2.16-2.118-4.338-3.124-6.525
			c-0.494-1.084-0.248-2.17,0.626-2.912c1.639-1.393,28.07-24.918,28.077-24.226c0.052,2.67-3.643,29.896-3.76,31.771
			c-0.119,1.832-1.246,2.992-2.844,3.518c-1.767,0.58-3.651,0.834-5.699,1.27C496.722,296.221,493.867,297.211,492.614,297.688z
			 M340.43,490.695c0.228-1.303,0.591-2.635,1.165-3.822c0.438-0.914,1.287-1.643,1.982-2.432c0.168-0.197,0.414-0.342,0.654-0.449
			c4.877-2.15,23.036-8.301,22.905-8.07c-1.901,3.518-9.844,13.367-12.06,16.682c-2.959,4.428-20.621,29.227-22.341,30.076
			C332.138,522.971,339.591,495.43,340.43,490.695z"/>
	</g>
	<g>
		<path fill="#FFFFFF" d="M147.693,311.67c-0.214-0.115-0.386-0.408-0.605-0.445c-6.93-1.207-13.466-3.994-20.412-5.117
			c-1.087-0.178-1.833-0.885-2.331-1.738c-1.131-1.947-2.137-3.965-3.178-5.963c-0.329-0.639,0.42-1.457,1.252-1.387
			c4.766,0.377,9.494,0.828,13.912,2.967c1.052,0.516,2.424,0.445,3.652,0.486c0.286,0.006,0.641-0.592,0.857-0.969
			c0.092-0.154-0.014-0.561-0.166-0.697c-0.734-0.66-1.438-1.43-2.298-1.857c-2.267-1.117-4.7-1.715-7.218-2.025
			c-1.736-0.215-3.439-0.754-5.179-0.924c-3.602-0.344-6.628-2.199-9.841-3.568c-0.668-0.283-1.297-0.797-1.769-1.357
			c-2.284-2.689-4.313-5.553-5.565-8.891c-0.224-0.586,0.539-1.535,1.229-1.396c6.121,1.236,12.49,1.182,18.377,3.666
			c0.918,0.387,1.958,0.148,2.815-0.527c0.657-0.521,0.801-1.232,0.81-1.99c0.006-0.641-0.721-1.523-1.315-1.623
			c-4.466-0.732-8.935-1.438-13.39-2.197c-2.966-0.502-5.916-1.098-8.88-1.619c-3.452-0.594-5.579-3.312-7.442-6.148
			c-1.936-2.933-36.59-54.692-40.093-60.493c-1.286-2.139-3.484-4.816-4.923-6.873c-2.254-3.207-5.289-6.909-7.457-10.539
			c0.236-1.002,1.825-2.146,2.74-2.785c2.484-1.746,7.232-4.601,7.896-4.926c0.758-0.369,1.048-1.682,0.738-2.488
			c-0.275-0.693-26.657-22.258-36.527-29.608c-0.596-0.44-1.725-1.572-2.389-1.853c-0.635-0.27-1.436-0.295-2.144-0.229
			c-0.817,0.074-1.627,1.406-1.576,2.307c0.046,0.752-0.028,1.559,0.218,2.238c1.967,5.449,8.26,36.533,8.586,39.338
			c0.004,0.1,0.02,0.188,0.025,0.258c0.072,0.994,0.08,2.004,0.233,2.984c0.398,2.471,2.985,3.899,5.12,2.65
			c3.486-2.039,7.188-3.576,10.906-5.104c1.345-0.549,2.536-0.293,3.385,0.758c1.039,1.301,2.068,2.619,3.052,3.965
			c3.91,5.736,7.854,11.471,11.81,17.082c1.012,1.438,36.021,53.766,36.914,55.278c1.065,1.807,1.963,4.676,1.609,6.711
			c-1.164,6.676-2.199,13.387-5.344,19.533c-0.426,0.824-0.48,1.945-0.386,2.898c0.071,0.658,0.589,1.367,1.092,1.861
			c0.481,0.477,2.144-0.23,2.585-0.988c0.25-0.434,0.65-0.852,0.709-1.312c0.715-5.518,3.192-10.547,4.385-15.928
			c0.104-0.471,0.373-0.912,0.623-1.338c0.115-0.182,0.393-0.396,0.57-0.375c0.463,0.049,1.134,0.074,1.342,0.373
			c2.146,3.094,4.229,6.221,6.291,9.367c0.568,0.885,0.684,1.877,0.266,2.871c-2.811,6.768-4.094,13.965-5.814,21.033
			c-0.172,0.699-0.146,1.488-0.021,2.211c0.078,0.434,0.471,0.857,0.799,1.211c0.405,0.449,1.474,0.322,2.066-0.135
			c1.058-0.805,1.805-1.852,1.736-3.17c-0.189-3.844,1.323-7.402,1.755-11.141c0.228-1.959,1.034-3.908,2.747-5.197
			c0.328-0.244,0.895-0.195,1.353-0.195c0.22,0.002,0.479,0.172,0.649,0.34c1.994,2.002,3.244,4.459,4.176,7.076
			c0.328,0.924,0.305,1.971,0.455,3.023c-0.14,1.711-0.188,3.475-0.455,5.207c-0.766,4.961-0.818,10.018-2.256,14.879
			c-0.171,0.584,0.291,1.404,0.568,2.072c0.273,0.672,1.402,0.727,1.939,0.246c0.995-0.898,1.617-2.066,1.594-3.299
			c-0.074-4.08,1.496-7.887,1.8-11.904c0.089-1.207,0.729-2.391,1.195-3.553c0.417-1.027,1.354-1.451,2.36-1.607
			c0.737-0.115,1.516-0.139,2.251-0.031c2.97,0.461,5.966,0.854,8.882,1.541c1.684,0.398,3.214,1.404,4.865,1.994
			c0.918,0.324,1.938,0.385,2.92,0.498c0.631,0.074,1.312-0.627,1.503-1.402C148.517,312.971,148.148,311.904,147.693,311.67z
			 M39.077,190.162c-2.061,0.867-4.616,1.807-6.721,2.576c-0.463,0.168-1.661-0.412-1.906-0.927c-0.44-0.896-1.01-1.77-1.23-2.722
			c-1.254-5.354-2.559-10.7-3.564-16.104c-0.779-4.172-1.307-8.391-2.307-12.524c-0.115-0.48-0.043-1.001-0.066-1.888
			c0.008-0.111,0.011-0.617,0.102-1.1c0.039-0.229,0.198-0.559,0.381-0.621c0.415-0.146,1.047-0.377,1.299-0.188
			c4.98,3.773,9.952,7.55,14.854,11.43c4.098,3.245,7.895,6.86,12.1,9.994c0.191,0.14,2.238,2.085,1.418,2.901
			c-1.477,1.471-3.41,2.162-5.129,3.154c-1.891,1.083-2.787,2.001-4,0.363c-0.885-1.207-4.222-5.021-5.022-6.284
			c-1.206-1.896-4.966-6.547-5.71-6.015c-1.166,0.834,1.066,4.969,1.605,5.806c1.895,2.944,3.029,5.716,4.834,8.708
			C40.901,188.183,40.759,189.461,39.077,190.162z"/>
	</g>
	<g>
		<path fill="#FFFFFF" d="M417.115,313.951c0.193,0.775,0.871,1.477,1.503,1.398c0.98-0.113,2.005-0.174,2.921-0.5
			c1.652-0.59,3.181-1.59,4.86-1.99c2.92-0.691,5.913-1.076,8.89-1.539c0.729-0.107,1.511-0.084,2.246,0.021
			c1.006,0.164,1.948,0.584,2.358,1.615c0.469,1.16,1.107,2.342,1.197,3.547c0.305,4.02,1.875,7.828,1.802,11.908
			c-0.02,1.232,0.601,2.404,1.597,3.299c0.53,0.48,1.66,0.424,1.934-0.246c0.275-0.666,0.741-1.488,0.567-2.074
			c-1.436-4.857-1.49-9.922-2.251-14.875c-0.268-1.732-0.312-3.498-0.46-5.205c0.151-1.057,0.132-2.105,0.46-3.025
			c0.927-2.617,2.182-5.074,4.178-7.076c0.169-0.172,0.426-0.342,0.646-0.346c0.456,0,1.025-0.041,1.349,0.201
			c1.716,1.281,2.522,3.24,2.748,5.199c0.435,3.738,1.947,7.295,1.753,11.135c-0.06,1.318,0.68,2.367,1.737,3.176
			c0.595,0.453,1.665,0.584,2.07,0.133c0.326-0.359,0.723-0.775,0.801-1.215c0.122-0.717,0.145-1.51-0.025-2.211
			c-1.719-7.066-3.002-14.26-5.813-21.033c-0.413-0.996-0.308-1.99,0.27-2.861c2.062-3.15,4.146-6.283,6.283-9.373
			c0.209-0.299,0.883-0.324,1.351-0.381c0.171-0.018,0.453,0.203,0.566,0.383c0.248,0.418,0.52,0.863,0.619,1.332
			c1.199,5.389,3.677,10.412,4.386,15.934c0.062,0.457,0.464,0.881,0.712,1.309c0.437,0.76,2.107,1.471,2.588,0.992
			c0.5-0.498,1.015-1.203,1.086-1.861c0.095-0.951,0.04-2.076-0.377-2.902c-3.153-6.146-4.187-12.852-5.347-19.527
			c-0.352-2.043,0.536-4.904,1.61-6.711c0.889-1.512,35.9-53.845,36.912-55.278c3.947-5.611,7.899-11.35,11.805-17.088
			c0.986-1.344,2.015-2.661,3.059-3.962c0.841-1.054,2.039-1.306,3.376-0.761c3.72,1.524,7.423,3.064,10.909,5.109
			c2.14,1.246,4.721-0.184,5.117-2.656c0.164-0.977,0.171-1.984,0.244-2.982c0.002-0.07,0.009-0.159,0.023-0.259
			c0.316-2.802,6.62-33.884,8.578-39.335c0.253-0.684,0.175-1.486,0.217-2.242c0.055-0.897-0.754-2.229-1.572-2.307
			c-0.708-0.062-1.507-0.039-2.144,0.229c-0.664,0.283-1.795,1.416-2.388,1.859c-9.867,7.347-36.253,28.914-36.526,29.602
			c-0.317,0.807-0.017,2.122,0.734,2.494c0.666,0.322,5.417,3.18,7.896,4.917c0.915,0.649,2.511,1.79,2.745,2.788
			c-2.17,3.637-5.206,7.329-7.462,10.543c-1.435,2.049-3.631,4.736-4.919,6.873c-3.506,5.8-38.158,57.557-40.096,60.497
			c-1.864,2.834-3.988,5.545-7.439,6.145c-2.965,0.518-5.914,1.117-8.876,1.621c-4.467,0.758-8.932,1.463-13.397,2.199
			c-0.591,0.092-1.317,0.975-1.309,1.613c0.006,0.766,0.145,1.473,0.803,1.992c0.861,0.68,1.904,0.92,2.825,0.535
			c5.877-2.486,12.247-2.436,18.368-3.67c0.689-0.137,1.457,0.809,1.237,1.396c-1.258,3.34-3.289,6.199-5.568,8.893
			c-0.472,0.561-1.106,1.07-1.771,1.35c-3.209,1.373-6.238,3.229-9.842,3.57c-1.742,0.174-3.44,0.709-5.179,0.924
			c-2.519,0.314-4.951,0.916-7.213,2.029c-0.865,0.426-1.563,1.195-2.301,1.854c-0.154,0.137-0.264,0.541-0.171,0.699
			c0.217,0.379,0.571,0.979,0.857,0.975c1.229-0.047,2.604,0.023,3.659-0.488c4.413-2.141,9.143-2.592,13.91-2.975
			c0.831-0.064,1.579,0.756,1.247,1.387c-1.038,2-2.047,4.018-3.171,5.969c-0.497,0.855-1.249,1.562-2.331,1.736
			c-6.954,1.127-13.488,3.91-20.416,5.121c-0.224,0.035-0.386,0.324-0.606,0.443C417.303,312.172,416.929,313.234,417.115,313.951z
			 M525.434,186.994c1.81-2.995,2.941-5.769,4.834-8.707c0.54-0.841,2.773-4.978,1.611-5.807c-0.75-0.535-4.504,4.111-5.712,6.015
			c-0.808,1.255-4.141,5.074-5.021,6.281c-1.212,1.641-2.112,0.72-4.003-0.366c-1.717-0.986-3.653-1.678-5.126-3.147
			c-0.819-0.826,1.228-2.762,1.412-2.905c4.205-3.133,8.005-6.746,12.105-9.994c4.899-3.879,9.874-7.656,14.851-11.427
			c0.252-0.191,0.881,0.04,1.293,0.183c0.188,0.061,0.346,0.389,0.388,0.621c0.089,0.488,0.095,0.994,0.102,1.106
			c-0.025,0.88,0.051,1.406-0.065,1.878c-0.999,4.141-1.521,8.359-2.302,12.533c-1.01,5.403-2.315,10.746-3.566,16.098
			c-0.223,0.959-0.794,1.83-1.229,2.728c-0.251,0.509-1.449,1.093-1.913,0.921c-2.104-0.767-4.653-1.707-6.724-2.57
			C524.693,189.733,524.551,188.447,525.434,186.994z"/>
	</g>
	<g>
		<path fill="#FFFFFF" d="M83.544,201.314v3.954h5.583v2.548h-5.583v5.061h7.658v2.666H80.551V198.65h10.774v2.664H83.544z"/>
		<path fill="#FFFFFF" d="M93.173,214.608l1.106-2.69c1.187,0.836,2.353,1.25,3.493,1.25c1.76,0,2.643-0.618,2.643-1.845
			c0-0.577-0.209-1.13-0.624-1.649c-0.415-0.523-1.269-1.109-2.567-1.762c-1.292-0.645-2.164-1.183-2.613-1.6
			c-0.449-0.421-0.801-0.918-1.041-1.496c-0.242-0.578-0.365-1.211-0.365-1.912c0-1.307,0.483-2.393,1.438-3.254
			c0.958-0.86,2.188-1.289,3.686-1.289c1.955,0,3.386,0.366,4.301,1.095l-0.912,2.582c-1.057-0.752-2.162-1.126-3.334-1.126
			c-0.689,0-1.223,0.183-1.607,0.545c-0.383,0.363-0.568,0.841-0.568,1.424c0,0.967,1.074,1.976,3.217,3.022
			c1.131,0.552,1.943,1.06,2.438,1.526c0.509,0.463,0.883,1.012,1.146,1.623c0.26,0.621,0.393,1.315,0.393,2.073
			c0,1.366-0.541,2.497-1.616,3.376c-1.085,0.884-2.532,1.327-4.345,1.327C95.862,215.829,94.442,215.423,93.173,214.608z"/>
		<path fill="#FFFFFF" d="M112.922,201.314v14.229h-2.999v-14.229h-5.369v-2.664h13.982v2.664H112.922z"/>
		<path fill="#FFFFFF" d="M124.245,215.542h-3.744v-16.881c2.39-0.086,3.896-0.129,4.506-0.129c2.46,0,4.411,0.723,5.848,2.164
			c1.444,1.441,2.165,3.354,2.165,5.737C133.02,212.503,130.095,215.542,124.245,215.542z M123.499,201.274v11.532
			c0.48,0.047,1.002,0.07,1.564,0.07c1.518,0,2.704-0.55,3.557-1.645c0.861-1.104,1.289-2.643,1.289-4.617
			c0-3.611-1.684-5.42-5.041-5.42C124.543,201.195,124.085,201.226,123.499,201.274z"/>
	</g>
	<g>
		<g>
			<path fill="#FFFFFF" d="M136.206,72.876c-6.153-3.399-12.451-6.683-18.89-9.842c-2.565,1.073-5.126,2.172-7.686,3.297
				c2.502,4.814,5.042,9.622,7.62,14.42c-2.882,1.277-5.758,2.588-8.63,3.934c-7.486-13.051-14.674-26.172-21.569-39.352
				c7.069-3.24,14.149-6.295,21.238-9.172c10.967-4.441,20.678-2.646,23.853,5.33c2.665,6.64-1.018,12.592-5.624,16.177
				c7.012,3.578,13.849,7.305,20.51,11.17C143.414,70.132,139.806,71.479,136.206,72.876z M111.661,43.952
				c-3.688,1.503-7.371,3.055-11.052,4.658c1.672,3.354,3.362,6.704,5.07,10.05c3.421-1.498,6.846-2.95,10.275-4.358
				c5.621-2.302,7.748-5.218,6.118-8.965C120.681,42.144,117.084,41.748,111.661,43.952z"/>
			<path fill="#FFFFFF" d="M152.307,66.985c-5.548-13.724-10.854-27.487-15.921-41.281c3.275-1.11,6.552-2.184,9.829-3.221
				c4.72,13.896,9.666,27.764,14.841,41.597C158.136,65.014,155.22,65.983,152.307,66.985z"/>
			<path fill="#FFFFFF" d="M177.336,12.865c10.033-2.45,17.495-0.521,24.099,4.404c-2.074,2.376-4.111,4.767-6.111,7.169
				c-5.384-4.174-10.03-5.204-15.806-3.791c-8.947,2.204-12.655,10.203-10.229,17.859c2.747,8.666,10.905,12.202,18.099,10.438
				c4.492-1.109,8.702-4.278,11.391-9.651c2.786,1.381,5.539,2.789,8.262,4.223c-3.712,6.989-8.896,11.123-17.817,13.32
				c-14.016,3.498-25.933-4.211-29.833-15.375C155.481,30.376,161.286,16.84,177.336,12.865z"/>
			<path fill="#FFFFFF" d="M246.957,45.976c-0.685-5.858-1.356-11.718-2.015-17.578c-8.548,0.894-17.093,2.04-25.63,3.438
				c1.032,5.812,2.087,11.621,3.161,17.43c-2.947,0.484-5.894,1-8.838,1.547c-3.015-14.334-5.886-28.681-8.62-43.037
				c3.282-0.606,6.565-1.178,9.848-1.715c0.977,5.836,1.975,11.671,2.992,17.506c8.716-1.427,17.437-2.594,26.16-3.507
				c-0.648-5.882-1.284-11.764-1.908-17.647c3.284-0.343,6.567-0.651,9.852-0.924c1.225,14.553,2.511,29.104,3.861,43.653
				C252.864,45.389,249.91,45.667,246.957,45.976z"/>
			<path fill="#FFFFFF" d="M302.97,43.859c0.326-9.833,0.639-19.666,0.938-29.499c-4.053,5.628-7.954,11.31-11.695,17.04
				c-2.61-0.008-5.222,0.007-7.831,0.045c-3.885-5.836-7.934-11.621-12.139-17.347c0.423,9.98,0.861,19.96,1.312,29.94
				c-2.958,0.121-5.914,0.274-8.871,0.458c-1.004-14.573-1.961-29.147-2.875-43.723c4.105-0.255,8.211-0.456,12.318-0.604
				c4.884,6.742,9.567,13.561,14.032,20.446C292.492,13.677,297.041,6.802,301.79,0c4.135,0.096,8.27,0.248,12.405,0.455
				c-0.737,14.586-1.52,29.171-2.348,43.755C308.889,44.062,305.93,43.945,302.97,43.859z"/>
			<path fill="#FFFFFF" d="M320.719,44.748c1.175-14.565,2.286-29.13,3.336-43.698c11.904,0.845,23.815,2.146,35.731,3.908
				c-0.421,2.765-0.845,5.529-1.273,8.293c-8.462-1.251-16.924-2.267-25.385-3.047c-0.24,2.502-0.481,5.005-0.726,7.507
				c7.547,0.696,15.095,1.583,22.642,2.661c-0.424,2.787-0.854,5.574-1.287,8.362c-7.395-1.058-14.79-1.927-22.185-2.609
				c-0.369,3.688-0.741,7.377-1.121,11.066c8.412,0.777,16.821,1.803,25.226,3.078c-0.465,2.741-0.934,5.48-1.408,8.219
				C343.094,46.791,331.908,45.544,320.719,44.748z"/>
			<path fill="#FFFFFF" d="M378.759,52.949c-5.943-1.262-11.895-2.394-17.847-3.396c2.762-14.383,5.383-28.777,7.87-43.178
				c6.634,1.11,13.271,2.364,19.91,3.763c19.019,4.084,25.056,16.437,21.467,27.724C406.487,49.523,395.079,56.468,378.759,52.949z
				 M386.465,18.319c-3.15-0.662-6.3-1.291-9.451-1.886c-1.763,8.81-3.582,17.616-5.459,26.417c2.946,0.559,5.893,1.149,8.835,1.771
				c10.745,2.293,17.699-1.926,19.783-9.304C402.382,27.54,397.292,20.608,386.465,18.319z"/>
			<path fill="#FFFFFF" d="M409.229,60.593c4.74-13.969,9.258-27.966,13.561-41.986c3.292,0.943,6.585,1.923,9.878,2.939
				c-4.647,13.928-9.523,27.83-14.635,41.7C415.1,62.329,412.166,61.445,409.229,60.593z"/>
			<path fill="#FFFFFF" d="M457.753,65.97c-6.174-2.51-12.36-4.869-18.559-7.082c-2.881,2.819-5.732,5.658-8.556,8.517
				c-3.182-1.104-6.369-2.167-9.56-3.191c11.15-11.937,22.803-23.558,34.921-34.838c3.901,1.415,7.8,2.881,11.698,4.403
				c0.713,16.135,0.41,32.143-1.013,47.935c-3.15-1.414-6.306-2.786-9.468-4.117C457.462,73.732,457.64,69.856,457.753,65.97z
				 M445.829,52.389c4.027,1.468,8.05,2.997,12.069,4.588c0.017-5.109-0.074-10.234-0.269-15.373
				C453.645,45.164,449.711,48.758,445.829,52.389z"/>
		</g>
	</g>
	<g>
		<g>
			<path fill="#FFFFFF" d="M47.342,130.863c17.539-12.327,35.801-23.13,54.607-32.41c2.704,5.483,5.408,10.967,8.112,16.451
				c-5.155,2.544-10.267,5.208-15.332,7.991c-1.185-2.158-2.37-4.316-3.555-6.475c-4.773,2.623-9.505,5.35-14.193,8.182
				c1.973,3.268,3.945,6.537,5.918,9.805c5.408-3.266,10.875-6.389,16.398-9.369c1.746,3.239,3.492,6.478,5.238,9.716
				c-5.366,2.896-10.679,5.93-15.933,9.104c2.33,3.861,4.66,7.721,6.99,11.582c4.267-2.577,8.573-5.059,12.917-7.445
				c-1.238-2.255-2.477-4.511-3.714-6.766c4.795-2.635,9.636-5.157,14.516-7.565c2.765,5.607,5.53,11.215,8.295,16.823
				c-16.154,7.971-31.841,17.251-46.907,27.84c-2.116-3.01-4.231-6.021-6.347-9.031c1.624-1.141,3.253-2.267,4.891-3.378
				c-6.743-9.934-13.485-19.868-20.228-29.803c-1.799,1.221-3.59,2.459-5.374,3.712C51.541,136.838,49.441,133.851,47.342,130.863z"
				/>
			<path fill="#FFFFFF" d="M158.835,136.909c-9.186,3.476-18.26,7.349-27.196,11.618c-1.538-3.221-3.075-6.441-4.613-9.662
				c2.413-1.153,4.835-2.277,7.267-3.374c1.938-6.67,4.081-13.341,6.43-20.002c-7.94-4.206-16.132-8.167-24.566-11.863
				c-1.594,0.735-3.185,1.482-4.772,2.239c-1.548-3.246-3.097-6.492-4.646-9.738c12.41-5.925,25.048-11.193,37.863-15.804
				c1.218,3.384,2.436,6.769,3.653,10.152c-1.828,0.658-3.652,1.329-5.472,2.014c4.372,2.286,8.67,4.644,12.893,7.068
				c1.923-4.567,3.946-9.123,6.069-13.666c-2.799,0.896-5.591,1.823-8.374,2.782c-1.172-3.4-2.344-6.801-3.515-10.201
				c10.784-3.715,21.688-6.969,32.682-9.761c0.886,3.485,1.772,6.971,2.658,10.457c-2.741,0.696-5.476,1.421-8.205,2.176
				c-3.423,6.487-6.633,13.014-9.629,19.568c7.562,4.738,14.862,9.696,21.892,14.853c1.695-0.456,3.394-0.899,5.094-1.33
				c0.884,3.486,1.769,6.972,2.653,10.458c-11.351,2.876-22.589,6.326-33.672,10.348c-1.227-3.381-2.454-6.762-3.681-10.143
				c1.631-0.592,3.267-1.172,4.905-1.74c-3.109-1.909-6.263-3.778-9.462-5.607c-0.882-0.501-1.768-0.998-2.656-1.493
				c-1.756,4.527-3.414,9.062-4.972,13.602c2.52-1.019,5.049-2.008,7.585-2.968C156.309,130.233,157.572,133.571,158.835,136.909z"
				/>
			<path fill="#FFFFFF" d="M187.716,67.434c10.756-2.583,21.594-4.727,32.485-6.431c23.54-3.443,28.717,5.021,29.476,14.297
				c0.848,10.933-9.835,17.264-22.981,19.299c-2.343,0.359-4.683,0.74-7.021,1.143c0.73,4.226,1.46,8.451,2.19,12.677
				c1.812-0.313,3.626-0.611,5.442-0.896c0.567,3.607,1.134,7.215,1.701,10.822c-9.297,1.459-18.548,3.292-27.731,5.497
				c-0.854-3.55-1.708-7.101-2.561-10.652c1.646-0.396,3.295-0.779,4.945-1.151c-2.656-11.766-5.312-23.532-7.968-35.298
				c-1.814,0.409-3.627,0.831-5.437,1.266C189.41,74.481,188.563,70.958,187.716,67.434z M215.691,72.679
				c0.819,4.743,1.639,9.487,2.458,14.23c1.417-0.245,2.835-0.481,4.254-0.709c5.474-0.88,8.933-3.84,8.354-8.204
				c-0.647-4.848-4.454-7.038-10.162-6.131C218.959,72.125,217.324,72.397,215.691,72.679z"/>
			<path fill="#FFFFFF" d="M252.202,57.272c20.416-1.574,40.923-1.624,61.345-0.151c-0.441,6.098-0.882,12.196-1.322,18.294
				c-5.598-0.404-11.202-0.688-16.81-0.852c0.072-2.461,0.145-4.922,0.217-7.383c-5.283-0.155-10.569-0.205-15.854-0.151
				c0.039,3.817,0.078,7.635,0.117,11.452c6.097-0.062,12.193,0.018,18.286,0.242c-0.135,3.677-0.271,7.354-0.405,11.03
				c-5.92-0.217-11.845-0.295-17.768-0.234c0.047,4.509,0.093,9.018,0.14,13.527c4.81-0.049,9.62-0.003,14.428,0.137
				c0.076-2.572,0.151-5.143,0.227-7.715c5.309,0.155,10.615,0.424,15.915,0.807c-0.451,6.236-0.901,12.472-1.353,18.708
				c-17.542-1.265-35.158-1.222-52.694,0.13c-0.283-3.668-0.567-7.337-0.85-11.005c1.889-0.146,3.78-0.276,5.67-0.393
				c-0.738-11.983-1.476-23.967-2.214-35.951c-2.078,0.128-4.155,0.271-6.231,0.432C252.764,64.554,252.483,60.914,252.202,57.272z"
				/>
			<path fill="#FFFFFF" d="M318.631,57.52c10.998,0.93,21.967,2.303,32.878,4.118c23.444,4.138,26.011,13.198,23.794,22.237
				c-1.535,6.296-8.359,9.321-16.256,8.757c6.299,2.101,10.876,8.309,9.477,14.117c-0.813,3.476-0.756,5.617,0.832,5.999
				c1.324,0.319,2.269-0.471,2.668-2.083c0.219-0.886,0.438-1.772,0.657-2.659c1.999,0.493,3.995,1.003,5.988,1.531
				c-0.39,1.471-0.779,2.942-1.169,4.413c-1.796,6.68-6.405,11.956-15.843,9.786c-11.15-2.487-15.615-8.942-13.98-18.548
				c1.314-7.416,0.631-9.469-7.611-10.742c-0.639,4.24-1.277,8.48-1.916,12.721c1.817,0.273,3.633,0.56,5.446,0.861
				c-0.599,3.603-1.196,7.205-1.795,10.807c-9.316-1.545-18.681-2.714-28.069-3.508c0.309-3.639,0.616-7.277,0.925-10.916
				c1.679,0.142,3.356,0.295,5.033,0.46c1.186-12.003,2.371-24.006,3.557-36.01c-1.844-0.182-3.688-0.351-5.534-0.506
				C318.019,64.742,318.324,61.131,318.631,57.52z M343.551,71.301c-0.7,4.65-1.401,9.301-2.102,13.952
				c1.422,0.214,2.844,0.436,4.264,0.665c5.479,0.889,9.486-0.703,10.308-5.029c0.91-4.805-1.857-7.883-7.56-8.818
				C346.826,71.804,345.188,71.547,343.551,71.301z"/>
			<path fill="#FFFFFF" d="M456.708,94.091c-3.021,6.528-6.043,13.055-9.064,19.583c-4.384-2.03-8.796-3.975-13.234-5.833
				c1.367-3.267,2.734-6.533,4.102-9.8c-2.606-1.091-5.222-2.154-7.845-3.188c-4.401,11.171-8.802,22.342-13.203,33.514
				c2.359,0.93,4.711,1.885,7.054,2.865c-1.42,3.395-2.84,6.789-4.26,10.184c-10.184-4.262-20.522-8.025-30.979-11.291
				c1.098-3.512,2.195-7.024,3.292-10.536c2.377,0.742,4.748,1.509,7.112,2.302c3.815-11.385,7.63-22.77,11.445-34.154
				c-2.726-0.913-5.458-1.796-8.197-2.648c-1.053,3.381-2.105,6.762-3.158,10.144c-4.56-1.419-9.139-2.752-13.735-3.999
				c1.885-6.941,3.77-13.883,5.654-20.825C413.837,76.415,435.592,84.31,456.708,94.091z"/>
			<path fill="#FFFFFF" d="M435.58,148.261c2.992-6.297,5.985-12.594,8.978-18.89c5.306,2.523,10.566,5.179,15.776,7.966
				c-3.25,6.146,3.068,10.903,6.372,13.036c2.837,1.626,7.194,3.479,9.008,0.508c3.556-6.027-29.802-20.992-21.077-39.69
				c5.201-11.177,20.829-9.753,29.895-4.613c7.747,4.291,14.322,10.939,14.513,18.427c1.53-1.783,3.064-3.562,4.604-5.338
				c5.128,3.242,10.201,6.609,15.217,10.099c-3.966,5.7-7.932,11.399-11.898,17.099c-5.011-3.487-10.083-6.844-15.212-10.071
				c3.294-5.18,0.104-11.336-6.11-14.963c-2.567-1.507-6.863-2.211-8.275,0.331c-3.889,6.934,30.791,26.438,19.111,42.79
				c-7.544,10.484-21.094,6.698-30.255,1.24c-7.78-4.705-11.412-11.089-12.738-16.044c-1.3,1.721-2.596,3.444-3.885,5.171
				C444.969,152.854,440.294,150.502,435.58,148.261z"/>
		</g>
	</g>
	
		<rect x="-5.24" y="89.336" transform="matrix(0.8423 -0.5391 0.5391 0.8423 -43.7444 36.1322)" fill="#FFFFFF" width="90.219" height="6.957"/>
	<polygon fill="#FFFFFF" points="485.951,61.5 552.208,113.423 548.957,120.062 482.699,68.14 	"/>
	<g>
		<path fill="#FFFFFF" d="M440.211,212.642v3.135h-11.826c0.127-1.185,0.512-2.309,1.152-3.368c0.64-1.062,1.904-2.468,3.794-4.221
			c1.521-1.417,2.453-2.378,2.798-2.883c0.464-0.696,0.697-1.384,0.697-2.065c0-0.752-0.203-1.33-0.607-1.734
			s-0.963-0.606-1.675-0.606c-0.704,0-1.265,0.212-1.681,0.637c-0.417,0.424-0.657,1.128-0.721,2.112l-3.362-0.336
			c0.2-1.857,0.828-3.189,1.885-3.998c1.058-0.809,2.378-1.213,3.963-1.213c1.737,0,3.103,0.468,4.095,1.405
			c0.992,0.937,1.488,2.101,1.488,3.493c0,0.793-0.142,1.547-0.426,2.265c-0.284,0.717-0.734,1.466-1.351,2.251
			c-0.409,0.521-1.146,1.269-2.21,2.246c-1.064,0.976-1.738,1.625-2.023,1.945c-0.283,0.319-0.514,0.632-0.69,0.936H440.211z"/>
		<path fill="#FFFFFF" d="M448.196,198.101c1.706,0,3.038,0.608,3.999,1.825c1.145,1.441,1.717,3.831,1.717,7.169
			c0,3.33-0.576,5.724-1.729,7.181c-0.953,1.2-2.281,1.801-3.987,1.801c-1.713,0-3.094-0.658-4.142-1.976
			c-1.049-1.316-1.573-3.664-1.573-7.042c0-3.313,0.576-5.7,1.729-7.157C445.163,198.702,446.492,198.101,448.196,198.101z
			 M448.196,200.899c-0.408,0-0.772,0.13-1.093,0.39s-0.568,0.728-0.744,1.4c-0.232,0.872-0.348,2.34-0.348,4.406
			c0,2.065,0.104,3.484,0.312,4.257c0.207,0.772,0.47,1.286,0.785,1.542c0.316,0.257,0.679,0.385,1.087,0.385s0.772-0.13,1.093-0.39
			c0.32-0.261,0.569-0.728,0.745-1.399c0.231-0.864,0.349-2.329,0.349-4.395c0-2.066-0.104-3.484-0.312-4.257
			c-0.209-0.772-0.471-1.29-0.787-1.55S448.604,200.899,448.196,200.899z"/>
		<path fill="#FFFFFF" d="M464.803,215.777h-3.373V203.06c-1.233,1.152-2.687,2.005-4.359,2.558v-3.062
			c0.881-0.289,1.838-0.835,2.87-1.64s1.741-1.743,2.125-2.815h2.737V215.777z"/>
		<path fill="#FFFFFF" d="M469.895,211.25l3.363-0.348c0.096,0.761,0.379,1.362,0.852,1.807s1.016,0.666,1.633,0.666
			c0.705,0,1.302-0.286,1.789-0.858c0.488-0.571,0.732-1.435,0.732-2.587c0-1.081-0.242-1.891-0.727-2.432
			c-0.483-0.541-1.114-0.811-1.891-0.811c-0.969,0-1.838,0.428-2.605,1.284l-2.738-0.396l1.729-9.162h8.922v3.158h-6.363
			l-0.528,2.989c0.752-0.376,1.521-0.563,2.306-0.563c1.496,0,2.766,0.544,3.807,1.633c1.04,1.088,1.561,2.502,1.561,4.238
			c0,1.449-0.42,2.742-1.261,3.878c-1.146,1.554-2.733,2.33-4.768,2.33c-1.625,0-2.949-0.437-3.974-1.31
			C470.707,213.895,470.095,212.723,469.895,211.25z"/>
	</g>
</g>
</svg>
