<svg id="Layer_1" data-name="Layer 1" xmlns="http://www.w3.org/2000/svg" viewBox="0 0 458.246 293.208">
  <title>google-plus</title>
  <g>
    <path d="M-398.223,81.368h71.594a91.1,91.1,0,0,1-86.45,60.71c-48.349-.357-88.327-39.035-90.2-87.349A91.056,91.056,0,0,1-412.4-39.834a90.589,90.589,0,0,1,61.058,23.6,9.864,9.864,0,0,0,13.413-.047l26.3-24.749a9.831,9.831,0,0,0,.027-14.292,146.061,146.061,0,0,0-97.876-40.136C-490.3-97.031-558.433-30.762-559,50.078A146.6,146.6,0,0,0-412.4,197.727,146.6,146.6,0,0,0-266.036,59.369c0.114-.967.189-33.648,0.189-33.648H-398.223a9.824,9.824,0,0,0-9.824,9.824v36A9.824,9.824,0,0,0-398.223,81.368Z" transform="translate(559 95.481)"/>
    <path d="M-144.536,28.99V-6.183a8.609,8.609,0,0,0-8.609-8.609h-29.6a8.609,8.609,0,0,0-8.609,8.609V28.99h-35.173A8.609,8.609,0,0,0-235.14,37.6V67.2a8.609,8.609,0,0,0,8.609,8.609h35.173v35.173a8.609,8.609,0,0,0,8.609,8.609h29.6a8.609,8.609,0,0,0,8.609-8.609V75.812h35.173a8.609,8.609,0,0,0,8.609-8.609V37.6a8.609,8.609,0,0,0-8.609-8.609h-35.173Z" transform="translate(559 95.481)"/>
  </g>
</svg>
